mc16_13TeV:mc16_13TeV.364100.Sherpa_221_NNPDF30NNLO_Zmumu_MAXHTPTV0_70_CVetoBVeto.deriv.DAOD_SUSY1.e5271_s3126_r10201_p3895
mc16_13TeV:mc16_13TeV.364100.Sherpa_221_NNPDF30NNLO_Zmumu_MAXHTPTV0_70_CVetoBVeto.deriv.DAOD_SUSY1.e5271_s3126_r10724_p3895
mc16_13TeV:mc16_13TeV.364100.Sherpa_221_NNPDF30NNLO_Zmumu_MAXHTPTV0_70_CVetoBVeto.deriv.DAOD_SUSY1.e5271_s3126_r9364_p3895
mc16_13TeV:mc16_13TeV.364101.Sherpa_221_NNPDF30NNLO_Zmumu_MAXHTPTV0_70_CFilterBVeto.deriv.DAOD_SUSY1.e5271_s3126_r10201_p3895
mc16_13TeV:mc16_13TeV.364101.Sherpa_221_NNPDF30NNLO_Zmumu_MAXHTPTV0_70_CFilterBVeto.deriv.DAOD_SUSY1.e5271_s3126_r10724_p3895
mc16_13TeV:mc16_13TeV.364101.Sherpa_221_NNPDF30NNLO_Zmumu_MAXHTPTV0_70_CFilterBVeto.deriv.DAOD_SUSY1.e5271_s3126_r9364_p3895
mc16_13TeV:mc16_13TeV.364102.Sherpa_221_NNPDF30NNLO_Zmumu_MAXHTPTV0_70_BFilter.deriv.DAOD_SUSY1.e5271_s3126_r10201_p3895
mc16_13TeV:mc16_13TeV.364102.Sherpa_221_NNPDF30NNLO_Zmumu_MAXHTPTV0_70_BFilter.deriv.DAOD_SUSY1.e5271_s3126_r10724_p3895
mc16_13TeV:mc16_13TeV.364102.Sherpa_221_NNPDF30NNLO_Zmumu_MAXHTPTV0_70_BFilter.deriv.DAOD_SUSY1.e5271_s3126_r9364_p3895
mc16_13TeV:mc16_13TeV.364103.Sherpa_221_NNPDF30NNLO_Zmumu_MAXHTPTV70_140_CVetoBVeto.deriv.DAOD_SUSY1.e5271_s3126_r10201_p3895
mc16_13TeV:mc16_13TeV.364103.Sherpa_221_NNPDF30NNLO_Zmumu_MAXHTPTV70_140_CVetoBVeto.deriv.DAOD_SUSY1.e5271_s3126_r10724_p3895
mc16_13TeV:mc16_13TeV.364103.Sherpa_221_NNPDF30NNLO_Zmumu_MAXHTPTV70_140_CVetoBVeto.deriv.DAOD_SUSY1.e5271_s3126_r9364_p3895
mc16_13TeV:mc16_13TeV.364104.Sherpa_221_NNPDF30NNLO_Zmumu_MAXHTPTV70_140_CFilterBVeto.deriv.DAOD_SUSY1.e5271_s3126_r10201_p3895
mc16_13TeV:mc16_13TeV.364104.Sherpa_221_NNPDF30NNLO_Zmumu_MAXHTPTV70_140_CFilterBVeto.deriv.DAOD_SUSY1.e5271_s3126_r10724_p3895
mc16_13TeV:mc16_13TeV.364104.Sherpa_221_NNPDF30NNLO_Zmumu_MAXHTPTV70_140_CFilterBVeto.deriv.DAOD_SUSY1.e5271_s3126_r9364_p3895
mc16_13TeV:mc16_13TeV.364105.Sherpa_221_NNPDF30NNLO_Zmumu_MAXHTPTV70_140_BFilter.deriv.DAOD_SUSY1.e5271_s3126_r10201_p3895
mc16_13TeV:mc16_13TeV.364105.Sherpa_221_NNPDF30NNLO_Zmumu_MAXHTPTV70_140_BFilter.deriv.DAOD_SUSY1.e5271_s3126_r10724_p3895
mc16_13TeV:mc16_13TeV.364105.Sherpa_221_NNPDF30NNLO_Zmumu_MAXHTPTV70_140_BFilter.deriv.DAOD_SUSY1.e5271_s3126_r9364_p3895
mc16_13TeV:mc16_13TeV.364106.Sherpa_221_NNPDF30NNLO_Zmumu_MAXHTPTV140_280_CVetoBVeto.deriv.DAOD_SUSY1.e5271_s3126_r10201_p3895
mc16_13TeV:mc16_13TeV.364106.Sherpa_221_NNPDF30NNLO_Zmumu_MAXHTPTV140_280_CVetoBVeto.deriv.DAOD_SUSY1.e5271_s3126_r10724_p3895
mc16_13TeV:mc16_13TeV.364106.Sherpa_221_NNPDF30NNLO_Zmumu_MAXHTPTV140_280_CVetoBVeto.deriv.DAOD_SUSY1.e5271_s3126_r9364_p3895
mc16_13TeV:mc16_13TeV.364107.Sherpa_221_NNPDF30NNLO_Zmumu_MAXHTPTV140_280_CFilterBVeto.deriv.DAOD_SUSY1.e5271_s3126_r10201_p3895
mc16_13TeV:mc16_13TeV.364107.Sherpa_221_NNPDF30NNLO_Zmumu_MAXHTPTV140_280_CFilterBVeto.deriv.DAOD_SUSY1.e5271_s3126_r10724_p3895
mc16_13TeV:mc16_13TeV.364107.Sherpa_221_NNPDF30NNLO_Zmumu_MAXHTPTV140_280_CFilterBVeto.deriv.DAOD_SUSY1.e5271_s3126_r9364_p3895
mc16_13TeV:mc16_13TeV.364108.Sherpa_221_NNPDF30NNLO_Zmumu_MAXHTPTV140_280_BFilter.deriv.DAOD_SUSY1.e5271_s3126_r10201_p3895
mc16_13TeV:mc16_13TeV.364108.Sherpa_221_NNPDF30NNLO_Zmumu_MAXHTPTV140_280_BFilter.deriv.DAOD_SUSY1.e5271_s3126_r10724_p3895
mc16_13TeV:mc16_13TeV.364108.Sherpa_221_NNPDF30NNLO_Zmumu_MAXHTPTV140_280_BFilter.deriv.DAOD_SUSY1.e5271_s3126_r9364_p3895
mc16_13TeV:mc16_13TeV.364109.Sherpa_221_NNPDF30NNLO_Zmumu_MAXHTPTV280_500_CVetoBVeto.deriv.DAOD_SUSY1.e5271_s3126_r10201_p3895
mc16_13TeV:mc16_13TeV.364109.Sherpa_221_NNPDF30NNLO_Zmumu_MAXHTPTV280_500_CVetoBVeto.deriv.DAOD_SUSY1.e5271_s3126_r10724_p3895
mc16_13TeV:mc16_13TeV.364109.Sherpa_221_NNPDF30NNLO_Zmumu_MAXHTPTV280_500_CVetoBVeto.deriv.DAOD_SUSY1.e5271_s3126_r9364_p3895
mc16_13TeV:mc16_13TeV.364110.Sherpa_221_NNPDF30NNLO_Zmumu_MAXHTPTV280_500_CFilterBVeto.deriv.DAOD_SUSY1.e5271_s3126_r10201_p3895
mc16_13TeV:mc16_13TeV.364110.Sherpa_221_NNPDF30NNLO_Zmumu_MAXHTPTV280_500_CFilterBVeto.deriv.DAOD_SUSY1.e5271_s3126_r10724_p3895
mc16_13TeV:mc16_13TeV.364110.Sherpa_221_NNPDF30NNLO_Zmumu_MAXHTPTV280_500_CFilterBVeto.deriv.DAOD_SUSY1.e5271_s3126_r9364_p3895
mc16_13TeV:mc16_13TeV.364111.Sherpa_221_NNPDF30NNLO_Zmumu_MAXHTPTV280_500_BFilter.deriv.DAOD_SUSY1.e5271_s3126_r10201_p3895
mc16_13TeV:mc16_13TeV.364111.Sherpa_221_NNPDF30NNLO_Zmumu_MAXHTPTV280_500_BFilter.deriv.DAOD_SUSY1.e5271_s3126_r10724_p3895
mc16_13TeV:mc16_13TeV.364111.Sherpa_221_NNPDF30NNLO_Zmumu_MAXHTPTV280_500_BFilter.deriv.DAOD_SUSY1.e5271_s3126_r9364_p3895
mc16_13TeV:mc16_13TeV.364112.Sherpa_221_NNPDF30NNLO_Zmumu_MAXHTPTV500_1000.deriv.DAOD_SUSY1.e5271_s3126_r10201_p3895
mc16_13TeV:mc16_13TeV.364112.Sherpa_221_NNPDF30NNLO_Zmumu_MAXHTPTV500_1000.deriv.DAOD_SUSY1.e5271_s3126_r10724_p3895
mc16_13TeV:mc16_13TeV.364112.Sherpa_221_NNPDF30NNLO_Zmumu_MAXHTPTV500_1000.deriv.DAOD_SUSY1.e5271_s3126_r9364_p3895
mc16_13TeV:mc16_13TeV.364113.Sherpa_221_NNPDF30NNLO_Zmumu_MAXHTPTV1000_E_CMS.deriv.DAOD_SUSY1.e5271_s3126_r10201_p3895
mc16_13TeV:mc16_13TeV.364113.Sherpa_221_NNPDF30NNLO_Zmumu_MAXHTPTV1000_E_CMS.deriv.DAOD_SUSY1.e5271_s3126_r10724_p3895
mc16_13TeV:mc16_13TeV.364113.Sherpa_221_NNPDF30NNLO_Zmumu_MAXHTPTV1000_E_CMS.deriv.DAOD_SUSY1.e5271_s3126_r9364_p3895
mc16_13TeV:mc16_13TeV.364114.Sherpa_221_NNPDF30NNLO_Zee_MAXHTPTV0_70_CVetoBVeto.deriv.DAOD_SUSY1.e5299_s3126_r10201_p3895
mc16_13TeV:mc16_13TeV.364114.Sherpa_221_NNPDF30NNLO_Zee_MAXHTPTV0_70_CVetoBVeto.deriv.DAOD_SUSY1.e5299_s3126_r10724_p3895
mc16_13TeV:mc16_13TeV.364114.Sherpa_221_NNPDF30NNLO_Zee_MAXHTPTV0_70_CVetoBVeto.deriv.DAOD_SUSY1.e5299_s3126_r9364_p3895
mc16_13TeV:mc16_13TeV.364115.Sherpa_221_NNPDF30NNLO_Zee_MAXHTPTV0_70_CFilterBVeto.deriv.DAOD_SUSY1.e5299_s3126_r10201_p3895
mc16_13TeV:mc16_13TeV.364115.Sherpa_221_NNPDF30NNLO_Zee_MAXHTPTV0_70_CFilterBVeto.deriv.DAOD_SUSY1.e5299_s3126_r10724_p3895
mc16_13TeV:mc16_13TeV.364115.Sherpa_221_NNPDF30NNLO_Zee_MAXHTPTV0_70_CFilterBVeto.deriv.DAOD_SUSY1.e5299_s3126_r9364_p3895
mc16_13TeV:mc16_13TeV.364116.Sherpa_221_NNPDF30NNLO_Zee_MAXHTPTV0_70_BFilter.deriv.DAOD_SUSY1.e5299_s3126_r10201_p3895
mc16_13TeV:mc16_13TeV.364116.Sherpa_221_NNPDF30NNLO_Zee_MAXHTPTV0_70_BFilter.deriv.DAOD_SUSY1.e5299_s3126_r10724_p3895
mc16_13TeV:mc16_13TeV.364116.Sherpa_221_NNPDF30NNLO_Zee_MAXHTPTV0_70_BFilter.deriv.DAOD_SUSY1.e5299_s3126_r9364_p3895
mc16_13TeV:mc16_13TeV.364117.Sherpa_221_NNPDF30NNLO_Zee_MAXHTPTV70_140_CVetoBVeto.deriv.DAOD_SUSY1.e5299_s3126_r10201_p3895
mc16_13TeV:mc16_13TeV.364117.Sherpa_221_NNPDF30NNLO_Zee_MAXHTPTV70_140_CVetoBVeto.deriv.DAOD_SUSY1.e5299_s3126_r10724_p3895
mc16_13TeV:mc16_13TeV.364117.Sherpa_221_NNPDF30NNLO_Zee_MAXHTPTV70_140_CVetoBVeto.deriv.DAOD_SUSY1.e5299_s3126_r9364_p3895
mc16_13TeV:mc16_13TeV.364118.Sherpa_221_NNPDF30NNLO_Zee_MAXHTPTV70_140_CFilterBVeto.deriv.DAOD_SUSY1.e5299_s3126_r10201_p3895
mc16_13TeV:mc16_13TeV.364118.Sherpa_221_NNPDF30NNLO_Zee_MAXHTPTV70_140_CFilterBVeto.deriv.DAOD_SUSY1.e5299_s3126_r10724_p3895
mc16_13TeV:mc16_13TeV.364118.Sherpa_221_NNPDF30NNLO_Zee_MAXHTPTV70_140_CFilterBVeto.deriv.DAOD_SUSY1.e5299_s3126_r9364_p3895
mc16_13TeV:mc16_13TeV.364119.Sherpa_221_NNPDF30NNLO_Zee_MAXHTPTV70_140_BFilter.deriv.DAOD_SUSY1.e5299_s3126_r10201_p3895
mc16_13TeV:mc16_13TeV.364119.Sherpa_221_NNPDF30NNLO_Zee_MAXHTPTV70_140_BFilter.deriv.DAOD_SUSY1.e5299_s3126_r10724_p3895
mc16_13TeV:mc16_13TeV.364119.Sherpa_221_NNPDF30NNLO_Zee_MAXHTPTV70_140_BFilter.deriv.DAOD_SUSY1.e5299_s3126_r9364_p3895
mc16_13TeV:mc16_13TeV.364120.Sherpa_221_NNPDF30NNLO_Zee_MAXHTPTV140_280_CVetoBVeto.deriv.DAOD_SUSY1.e5299_s3126_r10201_p3895
mc16_13TeV:mc16_13TeV.364120.Sherpa_221_NNPDF30NNLO_Zee_MAXHTPTV140_280_CVetoBVeto.deriv.DAOD_SUSY1.e5299_s3126_r10724_p3895
mc16_13TeV:mc16_13TeV.364120.Sherpa_221_NNPDF30NNLO_Zee_MAXHTPTV140_280_CVetoBVeto.deriv.DAOD_SUSY1.e5299_s3126_r9364_p3895
mc16_13TeV:mc16_13TeV.364121.Sherpa_221_NNPDF30NNLO_Zee_MAXHTPTV140_280_CFilterBVeto.deriv.DAOD_SUSY1.e5299_s3126_r10201_p3895
mc16_13TeV:mc16_13TeV.364121.Sherpa_221_NNPDF30NNLO_Zee_MAXHTPTV140_280_CFilterBVeto.deriv.DAOD_SUSY1.e5299_s3126_r10724_p3895
mc16_13TeV:mc16_13TeV.364121.Sherpa_221_NNPDF30NNLO_Zee_MAXHTPTV140_280_CFilterBVeto.deriv.DAOD_SUSY1.e5299_s3126_r9364_p3895
mc16_13TeV:mc16_13TeV.364122.Sherpa_221_NNPDF30NNLO_Zee_MAXHTPTV140_280_BFilter.deriv.DAOD_SUSY1.e5299_s3126_r10201_p3895
mc16_13TeV:mc16_13TeV.364122.Sherpa_221_NNPDF30NNLO_Zee_MAXHTPTV140_280_BFilter.deriv.DAOD_SUSY1.e5299_s3126_r10724_p3895
mc16_13TeV:mc16_13TeV.364122.Sherpa_221_NNPDF30NNLO_Zee_MAXHTPTV140_280_BFilter.deriv.DAOD_SUSY1.e5299_s3126_r9364_p3895
mc16_13TeV:mc16_13TeV.364123.Sherpa_221_NNPDF30NNLO_Zee_MAXHTPTV280_500_CVetoBVeto.deriv.DAOD_SUSY1.e5299_s3126_r10201_p3895
mc16_13TeV:mc16_13TeV.364123.Sherpa_221_NNPDF30NNLO_Zee_MAXHTPTV280_500_CVetoBVeto.deriv.DAOD_SUSY1.e5299_s3126_r10724_p3895
mc16_13TeV:mc16_13TeV.364123.Sherpa_221_NNPDF30NNLO_Zee_MAXHTPTV280_500_CVetoBVeto.deriv.DAOD_SUSY1.e5299_s3126_r9364_p3895
mc16_13TeV:mc16_13TeV.364124.Sherpa_221_NNPDF30NNLO_Zee_MAXHTPTV280_500_CFilterBVeto.deriv.DAOD_SUSY1.e5299_s3126_r10201_p3895
mc16_13TeV:mc16_13TeV.364124.Sherpa_221_NNPDF30NNLO_Zee_MAXHTPTV280_500_CFilterBVeto.deriv.DAOD_SUSY1.e5299_s3126_r10724_p3895
mc16_13TeV:mc16_13TeV.364124.Sherpa_221_NNPDF30NNLO_Zee_MAXHTPTV280_500_CFilterBVeto.deriv.DAOD_SUSY1.e5299_s3126_r9364_p3895
mc16_13TeV:mc16_13TeV.364125.Sherpa_221_NNPDF30NNLO_Zee_MAXHTPTV280_500_BFilter.deriv.DAOD_SUSY1.e5299_s3126_r10201_p3895
mc16_13TeV:mc16_13TeV.364125.Sherpa_221_NNPDF30NNLO_Zee_MAXHTPTV280_500_BFilter.deriv.DAOD_SUSY1.e5299_s3126_r10724_p3895
mc16_13TeV:mc16_13TeV.364125.Sherpa_221_NNPDF30NNLO_Zee_MAXHTPTV280_500_BFilter.deriv.DAOD_SUSY1.e5299_s3126_r9364_p3895
mc16_13TeV:mc16_13TeV.364126.Sherpa_221_NNPDF30NNLO_Zee_MAXHTPTV500_1000.deriv.DAOD_SUSY1.e5299_s3126_r10201_p3895
mc16_13TeV:mc16_13TeV.364126.Sherpa_221_NNPDF30NNLO_Zee_MAXHTPTV500_1000.deriv.DAOD_SUSY1.e5299_s3126_r10724_p3895
mc16_13TeV:mc16_13TeV.364126.Sherpa_221_NNPDF30NNLO_Zee_MAXHTPTV500_1000.deriv.DAOD_SUSY1.e5299_s3126_r9364_p3895
mc16_13TeV:mc16_13TeV.364127.Sherpa_221_NNPDF30NNLO_Zee_MAXHTPTV1000_E_CMS.deriv.DAOD_SUSY1.e5299_s3126_r10201_p3895
mc16_13TeV:mc16_13TeV.364127.Sherpa_221_NNPDF30NNLO_Zee_MAXHTPTV1000_E_CMS.deriv.DAOD_SUSY1.e5299_s3126_r10724_p3895
mc16_13TeV:mc16_13TeV.364127.Sherpa_221_NNPDF30NNLO_Zee_MAXHTPTV1000_E_CMS.deriv.DAOD_SUSY1.e5299_s3126_r9364_p3895
mc16_13TeV:mc16_13TeV.364128.Sherpa_221_NNPDF30NNLO_Ztautau_MAXHTPTV0_70_CVetoBVeto.deriv.DAOD_SUSY1.e5307_s3126_r10201_p3895
mc16_13TeV:mc16_13TeV.364128.Sherpa_221_NNPDF30NNLO_Ztautau_MAXHTPTV0_70_CVetoBVeto.deriv.DAOD_SUSY1.e5307_s3126_r10724_p3895
mc16_13TeV:mc16_13TeV.364128.Sherpa_221_NNPDF30NNLO_Ztautau_MAXHTPTV0_70_CVetoBVeto.deriv.DAOD_SUSY1.e5307_s3126_r9364_p3895
mc16_13TeV:mc16_13TeV.364129.Sherpa_221_NNPDF30NNLO_Ztautau_MAXHTPTV0_70_CFilterBVeto.deriv.DAOD_SUSY1.e5307_s3126_r10201_p3895
mc16_13TeV:mc16_13TeV.364129.Sherpa_221_NNPDF30NNLO_Ztautau_MAXHTPTV0_70_CFilterBVeto.deriv.DAOD_SUSY1.e5307_s3126_r10724_p3895
mc16_13TeV:mc16_13TeV.364129.Sherpa_221_NNPDF30NNLO_Ztautau_MAXHTPTV0_70_CFilterBVeto.deriv.DAOD_SUSY1.e5307_s3126_r9364_p3895
mc16_13TeV:mc16_13TeV.364130.Sherpa_221_NNPDF30NNLO_Ztautau_MAXHTPTV0_70_BFilter.deriv.DAOD_SUSY1.e5307_s3126_r10201_p3895
mc16_13TeV:mc16_13TeV.364130.Sherpa_221_NNPDF30NNLO_Ztautau_MAXHTPTV0_70_BFilter.deriv.DAOD_SUSY1.e5307_s3126_r10724_p3895
mc16_13TeV:mc16_13TeV.364130.Sherpa_221_NNPDF30NNLO_Ztautau_MAXHTPTV0_70_BFilter.deriv.DAOD_SUSY1.e5307_s3126_r9364_p3895
mc16_13TeV:mc16_13TeV.364131.Sherpa_221_NNPDF30NNLO_Ztautau_MAXHTPTV70_140_CVetoBVeto.deriv.DAOD_SUSY1.e5307_s3126_r10201_p3895
mc16_13TeV:mc16_13TeV.364131.Sherpa_221_NNPDF30NNLO_Ztautau_MAXHTPTV70_140_CVetoBVeto.deriv.DAOD_SUSY1.e5307_s3126_r10724_p3895
mc16_13TeV:mc16_13TeV.364131.Sherpa_221_NNPDF30NNLO_Ztautau_MAXHTPTV70_140_CVetoBVeto.deriv.DAOD_SUSY1.e5307_s3126_r9364_p3895
mc16_13TeV:mc16_13TeV.364132.Sherpa_221_NNPDF30NNLO_Ztautau_MAXHTPTV70_140_CFilterBVeto.deriv.DAOD_SUSY1.e5307_s3126_r10201_p3895
mc16_13TeV:mc16_13TeV.364132.Sherpa_221_NNPDF30NNLO_Ztautau_MAXHTPTV70_140_CFilterBVeto.deriv.DAOD_SUSY1.e5307_s3126_r10724_p3895
mc16_13TeV:mc16_13TeV.364132.Sherpa_221_NNPDF30NNLO_Ztautau_MAXHTPTV70_140_CFilterBVeto.deriv.DAOD_SUSY1.e5307_s3126_r9364_p3895
mc16_13TeV:mc16_13TeV.364133.Sherpa_221_NNPDF30NNLO_Ztautau_MAXHTPTV70_140_BFilter.deriv.DAOD_SUSY1.e5307_s3126_r10201_p3895
mc16_13TeV:mc16_13TeV.364133.Sherpa_221_NNPDF30NNLO_Ztautau_MAXHTPTV70_140_BFilter.deriv.DAOD_SUSY1.e5307_s3126_r10724_p3895
mc16_13TeV:mc16_13TeV.364133.Sherpa_221_NNPDF30NNLO_Ztautau_MAXHTPTV70_140_BFilter.deriv.DAOD_SUSY1.e5307_s3126_r9364_p3895
mc16_13TeV:mc16_13TeV.364134.Sherpa_221_NNPDF30NNLO_Ztautau_MAXHTPTV140_280_CVetoBVeto.deriv.DAOD_SUSY1.e5307_s3126_r10201_p3895
mc16_13TeV:mc16_13TeV.364134.Sherpa_221_NNPDF30NNLO_Ztautau_MAXHTPTV140_280_CVetoBVeto.deriv.DAOD_SUSY1.e5307_s3126_r10724_p3895
mc16_13TeV:mc16_13TeV.364134.Sherpa_221_NNPDF30NNLO_Ztautau_MAXHTPTV140_280_CVetoBVeto.deriv.DAOD_SUSY1.e5307_s3126_r9364_p3895
mc16_13TeV:mc16_13TeV.364135.Sherpa_221_NNPDF30NNLO_Ztautau_MAXHTPTV140_280_CFilterBVeto.deriv.DAOD_SUSY1.e5307_s3126_r10201_p3895
mc16_13TeV:mc16_13TeV.364135.Sherpa_221_NNPDF30NNLO_Ztautau_MAXHTPTV140_280_CFilterBVeto.deriv.DAOD_SUSY1.e5307_s3126_r10724_p3895
mc16_13TeV:mc16_13TeV.364135.Sherpa_221_NNPDF30NNLO_Ztautau_MAXHTPTV140_280_CFilterBVeto.deriv.DAOD_SUSY1.e5307_s3126_r9364_p3895
mc16_13TeV:mc16_13TeV.364136.Sherpa_221_NNPDF30NNLO_Ztautau_MAXHTPTV140_280_BFilter.deriv.DAOD_SUSY1.e5307_s3126_r10201_p3895
mc16_13TeV:mc16_13TeV.364136.Sherpa_221_NNPDF30NNLO_Ztautau_MAXHTPTV140_280_BFilter.deriv.DAOD_SUSY1.e5307_s3126_r10724_p3895
mc16_13TeV:mc16_13TeV.364136.Sherpa_221_NNPDF30NNLO_Ztautau_MAXHTPTV140_280_BFilter.deriv.DAOD_SUSY1.e5307_s3126_r9364_p3895
mc16_13TeV:mc16_13TeV.364137.Sherpa_221_NNPDF30NNLO_Ztautau_MAXHTPTV280_500_CVetoBVeto.deriv.DAOD_SUSY1.e5307_s3126_r10201_p3895
mc16_13TeV:mc16_13TeV.364137.Sherpa_221_NNPDF30NNLO_Ztautau_MAXHTPTV280_500_CVetoBVeto.deriv.DAOD_SUSY1.e5307_s3126_r10724_p3895
mc16_13TeV:mc16_13TeV.364137.Sherpa_221_NNPDF30NNLO_Ztautau_MAXHTPTV280_500_CVetoBVeto.deriv.DAOD_SUSY1.e5307_s3126_r9364_p3895
mc16_13TeV:mc16_13TeV.364138.Sherpa_221_NNPDF30NNLO_Ztautau_MAXHTPTV280_500_CFilterBVeto.deriv.DAOD_SUSY1.e5313_s3126_r10201_p3895
mc16_13TeV:mc16_13TeV.364138.Sherpa_221_NNPDF30NNLO_Ztautau_MAXHTPTV280_500_CFilterBVeto.deriv.DAOD_SUSY1.e5313_s3126_r10724_p3895
mc16_13TeV:mc16_13TeV.364138.Sherpa_221_NNPDF30NNLO_Ztautau_MAXHTPTV280_500_CFilterBVeto.deriv.DAOD_SUSY1.e5313_s3126_r9364_p3895
mc16_13TeV:mc16_13TeV.364139.Sherpa_221_NNPDF30NNLO_Ztautau_MAXHTPTV280_500_BFilter.deriv.DAOD_SUSY1.e5313_s3126_r10201_p3895
mc16_13TeV:mc16_13TeV.364139.Sherpa_221_NNPDF30NNLO_Ztautau_MAXHTPTV280_500_BFilter.deriv.DAOD_SUSY1.e5313_s3126_r10724_p3895
mc16_13TeV:mc16_13TeV.364139.Sherpa_221_NNPDF30NNLO_Ztautau_MAXHTPTV280_500_BFilter.deriv.DAOD_SUSY1.e5313_s3126_r9364_p3895
mc16_13TeV:mc16_13TeV.364140.Sherpa_221_NNPDF30NNLO_Ztautau_MAXHTPTV500_1000.deriv.DAOD_SUSY1.e5307_s3126_r10201_p3895
mc16_13TeV:mc16_13TeV.364140.Sherpa_221_NNPDF30NNLO_Ztautau_MAXHTPTV500_1000.deriv.DAOD_SUSY1.e5307_s3126_r10724_p3895
mc16_13TeV:mc16_13TeV.364140.Sherpa_221_NNPDF30NNLO_Ztautau_MAXHTPTV500_1000.deriv.DAOD_SUSY1.e5307_s3126_r9364_p3895
mc16_13TeV:mc16_13TeV.364141.Sherpa_221_NNPDF30NNLO_Ztautau_MAXHTPTV1000_E_CMS.deriv.DAOD_SUSY1.e5307_s3126_r10201_p3895
mc16_13TeV:mc16_13TeV.364141.Sherpa_221_NNPDF30NNLO_Ztautau_MAXHTPTV1000_E_CMS.deriv.DAOD_SUSY1.e5307_s3126_r10724_p3895
mc16_13TeV:mc16_13TeV.364141.Sherpa_221_NNPDF30NNLO_Ztautau_MAXHTPTV1000_E_CMS.deriv.DAOD_SUSY1.e5307_s3126_r9364_p3895
mc16_13TeV:mc16_13TeV.364142.Sherpa_221_NNPDF30NNLO_Znunu_MAXHTPTV0_70_CVetoBVeto.deriv.DAOD_SUSY1.e5308_s3126_r10201_p3895
mc16_13TeV:mc16_13TeV.364142.Sherpa_221_NNPDF30NNLO_Znunu_MAXHTPTV0_70_CVetoBVeto.deriv.DAOD_SUSY1.e5308_s3126_r9364_p3895
mc16_13TeV:mc16_13TeV.364143.Sherpa_221_NNPDF30NNLO_Znunu_MAXHTPTV0_70_CFilterBVeto.deriv.DAOD_SUSY1.e5308_s3126_r10201_p3895
mc16_13TeV:mc16_13TeV.364143.Sherpa_221_NNPDF30NNLO_Znunu_MAXHTPTV0_70_CFilterBVeto.deriv.DAOD_SUSY1.e5308_s3126_r9364_p3895
mc16_13TeV:mc16_13TeV.364144.Sherpa_221_NNPDF30NNLO_Znunu_MAXHTPTV0_70_BFilter.deriv.DAOD_SUSY1.e5308_s3126_r10201_p3895
mc16_13TeV:mc16_13TeV.364144.Sherpa_221_NNPDF30NNLO_Znunu_MAXHTPTV0_70_BFilter.deriv.DAOD_SUSY1.e5308_s3126_r9364_p3895
mc16_13TeV:mc16_13TeV.364145.Sherpa_221_NNPDF30NNLO_Znunu_MAXHTPTV70_140_CVetoBVeto.deriv.DAOD_SUSY1.e5308_s3126_r10201_p3895
mc16_13TeV:mc16_13TeV.364145.Sherpa_221_NNPDF30NNLO_Znunu_MAXHTPTV70_140_CVetoBVeto.deriv.DAOD_SUSY1.e5308_s3126_r9364_p3895
mc16_13TeV:mc16_13TeV.364146.Sherpa_221_NNPDF30NNLO_Znunu_MAXHTPTV70_140_CFilterBVeto.deriv.DAOD_SUSY1.e5308_s3126_r10201_p3895
mc16_13TeV:mc16_13TeV.364146.Sherpa_221_NNPDF30NNLO_Znunu_MAXHTPTV70_140_CFilterBVeto.deriv.DAOD_SUSY1.e5308_s3126_r9364_p3895
mc16_13TeV:mc16_13TeV.364147.Sherpa_221_NNPDF30NNLO_Znunu_MAXHTPTV70_140_BFilter.deriv.DAOD_SUSY1.e5308_s3126_r10201_p3895
mc16_13TeV:mc16_13TeV.364147.Sherpa_221_NNPDF30NNLO_Znunu_MAXHTPTV70_140_BFilter.deriv.DAOD_SUSY1.e5308_s3126_r9364_p3895
mc16_13TeV:mc16_13TeV.364148.Sherpa_221_NNPDF30NNLO_Znunu_MAXHTPTV140_280_CVetoBVeto.deriv.DAOD_SUSY1.e5308_s3126_r10201_p3895
mc16_13TeV:mc16_13TeV.364148.Sherpa_221_NNPDF30NNLO_Znunu_MAXHTPTV140_280_CVetoBVeto.deriv.DAOD_SUSY1.e5308_s3126_r9364_p3895
mc16_13TeV:mc16_13TeV.364149.Sherpa_221_NNPDF30NNLO_Znunu_MAXHTPTV140_280_CFilterBVeto.deriv.DAOD_SUSY1.e5308_s3126_r10201_p3895
mc16_13TeV:mc16_13TeV.364149.Sherpa_221_NNPDF30NNLO_Znunu_MAXHTPTV140_280_CFilterBVeto.deriv.DAOD_SUSY1.e5308_s3126_r9364_p3895
mc16_13TeV:mc16_13TeV.364150.Sherpa_221_NNPDF30NNLO_Znunu_MAXHTPTV140_280_BFilter.deriv.DAOD_SUSY1.e5308_s3126_r10201_p3895
mc16_13TeV:mc16_13TeV.364150.Sherpa_221_NNPDF30NNLO_Znunu_MAXHTPTV140_280_BFilter.deriv.DAOD_SUSY1.e5308_s3126_r9364_p3895
mc16_13TeV:mc16_13TeV.364151.Sherpa_221_NNPDF30NNLO_Znunu_MAXHTPTV280_500_CVetoBVeto.deriv.DAOD_SUSY1.e5308_s3126_r10201_p3895
mc16_13TeV:mc16_13TeV.364151.Sherpa_221_NNPDF30NNLO_Znunu_MAXHTPTV280_500_CVetoBVeto.deriv.DAOD_SUSY1.e5308_s3126_r9364_p3895
mc16_13TeV:mc16_13TeV.364152.Sherpa_221_NNPDF30NNLO_Znunu_MAXHTPTV280_500_CFilterBVeto.deriv.DAOD_SUSY1.e5308_s3126_r10201_p3895
mc16_13TeV:mc16_13TeV.364152.Sherpa_221_NNPDF30NNLO_Znunu_MAXHTPTV280_500_CFilterBVeto.deriv.DAOD_SUSY1.e5308_s3126_r9364_p3895
mc16_13TeV:mc16_13TeV.364153.Sherpa_221_NNPDF30NNLO_Znunu_MAXHTPTV280_500_BFilter.deriv.DAOD_SUSY1.e5308_s3126_r10201_p3895
mc16_13TeV:mc16_13TeV.364153.Sherpa_221_NNPDF30NNLO_Znunu_MAXHTPTV280_500_BFilter.deriv.DAOD_SUSY1.e5308_s3126_r9364_p3895
mc16_13TeV:mc16_13TeV.364154.Sherpa_221_NNPDF30NNLO_Znunu_MAXHTPTV500_1000.deriv.DAOD_SUSY1.e5308_s3126_r10201_p3895
mc16_13TeV:mc16_13TeV.364154.Sherpa_221_NNPDF30NNLO_Znunu_MAXHTPTV500_1000.deriv.DAOD_SUSY1.e5308_s3126_r9364_p3895
mc16_13TeV:mc16_13TeV.364155.Sherpa_221_NNPDF30NNLO_Znunu_MAXHTPTV1000_E_CMS.deriv.DAOD_SUSY1.e5308_s3126_r10201_p3895
mc16_13TeV:mc16_13TeV.364155.Sherpa_221_NNPDF30NNLO_Znunu_MAXHTPTV1000_E_CMS.deriv.DAOD_SUSY1.e5308_s3126_r9364_p3895
mc16_13TeV:mc16_13TeV.364156.Sherpa_221_NNPDF30NNLO_Wmunu_MAXHTPTV0_70_CVetoBVeto.deriv.DAOD_SUSY1.e5340_s3126_r10201_p3895
mc16_13TeV:mc16_13TeV.364156.Sherpa_221_NNPDF30NNLO_Wmunu_MAXHTPTV0_70_CVetoBVeto.deriv.DAOD_SUSY1.e5340_s3126_r10724_p3895
mc16_13TeV:mc16_13TeV.364156.Sherpa_221_NNPDF30NNLO_Wmunu_MAXHTPTV0_70_CVetoBVeto.deriv.DAOD_SUSY1.e5340_s3126_r9364_p3895
mc16_13TeV:mc16_13TeV.364157.Sherpa_221_NNPDF30NNLO_Wmunu_MAXHTPTV0_70_CFilterBVeto.deriv.DAOD_SUSY1.e5340_s3126_r10201_p3895
mc16_13TeV:mc16_13TeV.364157.Sherpa_221_NNPDF30NNLO_Wmunu_MAXHTPTV0_70_CFilterBVeto.deriv.DAOD_SUSY1.e5340_s3126_r10724_p3895
mc16_13TeV:mc16_13TeV.364157.Sherpa_221_NNPDF30NNLO_Wmunu_MAXHTPTV0_70_CFilterBVeto.deriv.DAOD_SUSY1.e5340_s3126_r9364_p3895
mc16_13TeV:mc16_13TeV.364158.Sherpa_221_NNPDF30NNLO_Wmunu_MAXHTPTV0_70_BFilter.deriv.DAOD_SUSY1.e5340_s3126_r10201_p3895
mc16_13TeV:mc16_13TeV.364158.Sherpa_221_NNPDF30NNLO_Wmunu_MAXHTPTV0_70_BFilter.deriv.DAOD_SUSY1.e5340_s3126_r10724_p3895
mc16_13TeV:mc16_13TeV.364158.Sherpa_221_NNPDF30NNLO_Wmunu_MAXHTPTV0_70_BFilter.deriv.DAOD_SUSY1.e5340_s3126_r9364_p3895
mc16_13TeV:mc16_13TeV.364159.Sherpa_221_NNPDF30NNLO_Wmunu_MAXHTPTV70_140_CVetoBVeto.deriv.DAOD_SUSY1.e5340_s3126_r10201_p3895
mc16_13TeV:mc16_13TeV.364159.Sherpa_221_NNPDF30NNLO_Wmunu_MAXHTPTV70_140_CVetoBVeto.deriv.DAOD_SUSY1.e5340_s3126_r10724_p3895
mc16_13TeV:mc16_13TeV.364159.Sherpa_221_NNPDF30NNLO_Wmunu_MAXHTPTV70_140_CVetoBVeto.deriv.DAOD_SUSY1.e5340_s3126_r9364_p3895
mc16_13TeV:mc16_13TeV.364160.Sherpa_221_NNPDF30NNLO_Wmunu_MAXHTPTV70_140_CFilterBVeto.deriv.DAOD_SUSY1.e5340_s3126_r10201_p3895
mc16_13TeV:mc16_13TeV.364160.Sherpa_221_NNPDF30NNLO_Wmunu_MAXHTPTV70_140_CFilterBVeto.deriv.DAOD_SUSY1.e5340_s3126_r10724_p3895
mc16_13TeV:mc16_13TeV.364160.Sherpa_221_NNPDF30NNLO_Wmunu_MAXHTPTV70_140_CFilterBVeto.deriv.DAOD_SUSY1.e5340_s3126_r9364_p3895
mc16_13TeV:mc16_13TeV.364161.Sherpa_221_NNPDF30NNLO_Wmunu_MAXHTPTV70_140_BFilter.deriv.DAOD_SUSY1.e5340_s3126_r10201_p3895
mc16_13TeV:mc16_13TeV.364161.Sherpa_221_NNPDF30NNLO_Wmunu_MAXHTPTV70_140_BFilter.deriv.DAOD_SUSY1.e5340_s3126_r10724_p3895
mc16_13TeV:mc16_13TeV.364161.Sherpa_221_NNPDF30NNLO_Wmunu_MAXHTPTV70_140_BFilter.deriv.DAOD_SUSY1.e5340_s3126_r9364_p3895
mc16_13TeV:mc16_13TeV.364162.Sherpa_221_NNPDF30NNLO_Wmunu_MAXHTPTV140_280_CVetoBVeto.deriv.DAOD_SUSY1.e5340_s3126_r10201_p3895
mc16_13TeV:mc16_13TeV.364162.Sherpa_221_NNPDF30NNLO_Wmunu_MAXHTPTV140_280_CVetoBVeto.deriv.DAOD_SUSY1.e5340_s3126_r10724_p3895
mc16_13TeV:mc16_13TeV.364162.Sherpa_221_NNPDF30NNLO_Wmunu_MAXHTPTV140_280_CVetoBVeto.deriv.DAOD_SUSY1.e5340_s3126_r9364_p3895
mc16_13TeV:mc16_13TeV.364163.Sherpa_221_NNPDF30NNLO_Wmunu_MAXHTPTV140_280_CFilterBVeto.deriv.DAOD_SUSY1.e5340_s3126_r10201_p3895
mc16_13TeV:mc16_13TeV.364163.Sherpa_221_NNPDF30NNLO_Wmunu_MAXHTPTV140_280_CFilterBVeto.deriv.DAOD_SUSY1.e5340_s3126_r10724_p3895
mc16_13TeV:mc16_13TeV.364163.Sherpa_221_NNPDF30NNLO_Wmunu_MAXHTPTV140_280_CFilterBVeto.deriv.DAOD_SUSY1.e5340_s3126_r9364_p3895
mc16_13TeV:mc16_13TeV.364164.Sherpa_221_NNPDF30NNLO_Wmunu_MAXHTPTV140_280_BFilter.deriv.DAOD_SUSY1.e5340_s3126_r10201_p3895
mc16_13TeV:mc16_13TeV.364164.Sherpa_221_NNPDF30NNLO_Wmunu_MAXHTPTV140_280_BFilter.deriv.DAOD_SUSY1.e5340_s3126_r10724_p3895
mc16_13TeV:mc16_13TeV.364164.Sherpa_221_NNPDF30NNLO_Wmunu_MAXHTPTV140_280_BFilter.deriv.DAOD_SUSY1.e5340_s3126_r9364_p3895
mc16_13TeV:mc16_13TeV.364165.Sherpa_221_NNPDF30NNLO_Wmunu_MAXHTPTV280_500_CVetoBVeto.deriv.DAOD_SUSY1.e5340_s3126_r10201_p3895
mc16_13TeV:mc16_13TeV.364165.Sherpa_221_NNPDF30NNLO_Wmunu_MAXHTPTV280_500_CVetoBVeto.deriv.DAOD_SUSY1.e5340_s3126_r10724_p3895
mc16_13TeV:mc16_13TeV.364165.Sherpa_221_NNPDF30NNLO_Wmunu_MAXHTPTV280_500_CVetoBVeto.deriv.DAOD_SUSY1.e5340_s3126_r9364_p3895
mc16_13TeV:mc16_13TeV.364166.Sherpa_221_NNPDF30NNLO_Wmunu_MAXHTPTV280_500_CFilterBVeto.deriv.DAOD_SUSY1.e5340_s3126_r10201_p3895
mc16_13TeV:mc16_13TeV.364166.Sherpa_221_NNPDF30NNLO_Wmunu_MAXHTPTV280_500_CFilterBVeto.deriv.DAOD_SUSY1.e5340_s3126_r10724_p3895
mc16_13TeV:mc16_13TeV.364166.Sherpa_221_NNPDF30NNLO_Wmunu_MAXHTPTV280_500_CFilterBVeto.deriv.DAOD_SUSY1.e5340_s3126_r9364_p3895
mc16_13TeV:mc16_13TeV.364167.Sherpa_221_NNPDF30NNLO_Wmunu_MAXHTPTV280_500_BFilter.deriv.DAOD_SUSY1.e5340_s3126_r10201_p3895
mc16_13TeV:mc16_13TeV.364167.Sherpa_221_NNPDF30NNLO_Wmunu_MAXHTPTV280_500_BFilter.deriv.DAOD_SUSY1.e5340_s3126_r10724_p3895
mc16_13TeV:mc16_13TeV.364167.Sherpa_221_NNPDF30NNLO_Wmunu_MAXHTPTV280_500_BFilter.deriv.DAOD_SUSY1.e5340_s3126_r9364_p3895
mc16_13TeV:mc16_13TeV.364168.Sherpa_221_NNPDF30NNLO_Wmunu_MAXHTPTV500_1000.deriv.DAOD_SUSY1.e5340_s3126_r10201_p3895
mc16_13TeV:mc16_13TeV.364168.Sherpa_221_NNPDF30NNLO_Wmunu_MAXHTPTV500_1000.deriv.DAOD_SUSY1.e5340_s3126_r10724_p3895
mc16_13TeV:mc16_13TeV.364168.Sherpa_221_NNPDF30NNLO_Wmunu_MAXHTPTV500_1000.deriv.DAOD_SUSY1.e5340_s3126_r9364_p3895
mc16_13TeV:mc16_13TeV.364169.Sherpa_221_NNPDF30NNLO_Wmunu_MAXHTPTV1000_E_CMS.deriv.DAOD_SUSY1.e5340_s3126_r10201_p3895
mc16_13TeV:mc16_13TeV.364169.Sherpa_221_NNPDF30NNLO_Wmunu_MAXHTPTV1000_E_CMS.deriv.DAOD_SUSY1.e5340_s3126_r10724_p3895
mc16_13TeV:mc16_13TeV.364169.Sherpa_221_NNPDF30NNLO_Wmunu_MAXHTPTV1000_E_CMS.deriv.DAOD_SUSY1.e5340_s3126_r9364_p3895
mc16_13TeV:mc16_13TeV.364170.Sherpa_221_NNPDF30NNLO_Wenu_MAXHTPTV0_70_CVetoBVeto.deriv.DAOD_SUSY1.e5340_s3126_r10201_p3895
mc16_13TeV:mc16_13TeV.364170.Sherpa_221_NNPDF30NNLO_Wenu_MAXHTPTV0_70_CVetoBVeto.deriv.DAOD_SUSY1.e5340_s3126_r10724_p3895
mc16_13TeV:mc16_13TeV.364170.Sherpa_221_NNPDF30NNLO_Wenu_MAXHTPTV0_70_CVetoBVeto.deriv.DAOD_SUSY1.e5340_s3126_r9364_p3895
mc16_13TeV:mc16_13TeV.364171.Sherpa_221_NNPDF30NNLO_Wenu_MAXHTPTV0_70_CFilterBVeto.deriv.DAOD_SUSY1.e5340_s3126_r10201_p3895
mc16_13TeV:mc16_13TeV.364171.Sherpa_221_NNPDF30NNLO_Wenu_MAXHTPTV0_70_CFilterBVeto.deriv.DAOD_SUSY1.e5340_s3126_r10724_p3895
mc16_13TeV:mc16_13TeV.364171.Sherpa_221_NNPDF30NNLO_Wenu_MAXHTPTV0_70_CFilterBVeto.deriv.DAOD_SUSY1.e5340_s3126_r9364_p3895
mc16_13TeV:mc16_13TeV.364172.Sherpa_221_NNPDF30NNLO_Wenu_MAXHTPTV0_70_BFilter.deriv.DAOD_SUSY1.e5340_s3126_r10201_p3895
mc16_13TeV:mc16_13TeV.364172.Sherpa_221_NNPDF30NNLO_Wenu_MAXHTPTV0_70_BFilter.deriv.DAOD_SUSY1.e5340_s3126_r10724_p3895
mc16_13TeV:mc16_13TeV.364172.Sherpa_221_NNPDF30NNLO_Wenu_MAXHTPTV0_70_BFilter.deriv.DAOD_SUSY1.e5340_s3126_r9364_p3895
mc16_13TeV:mc16_13TeV.364173.Sherpa_221_NNPDF30NNLO_Wenu_MAXHTPTV70_140_CVetoBVeto.deriv.DAOD_SUSY1.e5340_s3126_r10201_p3895
mc16_13TeV:mc16_13TeV.364173.Sherpa_221_NNPDF30NNLO_Wenu_MAXHTPTV70_140_CVetoBVeto.deriv.DAOD_SUSY1.e5340_s3126_r10724_p3895
mc16_13TeV:mc16_13TeV.364173.Sherpa_221_NNPDF30NNLO_Wenu_MAXHTPTV70_140_CVetoBVeto.deriv.DAOD_SUSY1.e5340_s3126_r9364_p3895
mc16_13TeV:mc16_13TeV.364174.Sherpa_221_NNPDF30NNLO_Wenu_MAXHTPTV70_140_CFilterBVeto.deriv.DAOD_SUSY1.e5340_s3126_r10201_p3895
mc16_13TeV:mc16_13TeV.364174.Sherpa_221_NNPDF30NNLO_Wenu_MAXHTPTV70_140_CFilterBVeto.deriv.DAOD_SUSY1.e5340_s3126_r10724_p3895
mc16_13TeV:mc16_13TeV.364174.Sherpa_221_NNPDF30NNLO_Wenu_MAXHTPTV70_140_CFilterBVeto.deriv.DAOD_SUSY1.e5340_s3126_r9364_p3895
mc16_13TeV:mc16_13TeV.364175.Sherpa_221_NNPDF30NNLO_Wenu_MAXHTPTV70_140_BFilter.deriv.DAOD_SUSY1.e5340_s3126_r10201_p3895
mc16_13TeV:mc16_13TeV.364175.Sherpa_221_NNPDF30NNLO_Wenu_MAXHTPTV70_140_BFilter.deriv.DAOD_SUSY1.e5340_s3126_r10724_p3895
mc16_13TeV:mc16_13TeV.364175.Sherpa_221_NNPDF30NNLO_Wenu_MAXHTPTV70_140_BFilter.deriv.DAOD_SUSY1.e5340_s3126_r9364_p3895
mc16_13TeV:mc16_13TeV.364176.Sherpa_221_NNPDF30NNLO_Wenu_MAXHTPTV140_280_CVetoBVeto.deriv.DAOD_SUSY1.e5340_s3126_r10201_p3895
mc16_13TeV:mc16_13TeV.364176.Sherpa_221_NNPDF30NNLO_Wenu_MAXHTPTV140_280_CVetoBVeto.deriv.DAOD_SUSY1.e5340_s3126_r10724_p3895
mc16_13TeV:mc16_13TeV.364176.Sherpa_221_NNPDF30NNLO_Wenu_MAXHTPTV140_280_CVetoBVeto.deriv.DAOD_SUSY1.e5340_s3126_r9364_p3895
mc16_13TeV:mc16_13TeV.364177.Sherpa_221_NNPDF30NNLO_Wenu_MAXHTPTV140_280_CFilterBVeto.deriv.DAOD_SUSY1.e5340_s3126_r10201_p3895
mc16_13TeV:mc16_13TeV.364177.Sherpa_221_NNPDF30NNLO_Wenu_MAXHTPTV140_280_CFilterBVeto.deriv.DAOD_SUSY1.e5340_s3126_r10724_p3895
mc16_13TeV:mc16_13TeV.364177.Sherpa_221_NNPDF30NNLO_Wenu_MAXHTPTV140_280_CFilterBVeto.deriv.DAOD_SUSY1.e5340_s3126_r9364_p3895
mc16_13TeV:mc16_13TeV.364178.Sherpa_221_NNPDF30NNLO_Wenu_MAXHTPTV140_280_BFilter.deriv.DAOD_SUSY1.e5340_s3126_r10201_p3895
mc16_13TeV:mc16_13TeV.364178.Sherpa_221_NNPDF30NNLO_Wenu_MAXHTPTV140_280_BFilter.deriv.DAOD_SUSY1.e5340_s3126_r10724_p3895
mc16_13TeV:mc16_13TeV.364178.Sherpa_221_NNPDF30NNLO_Wenu_MAXHTPTV140_280_BFilter.deriv.DAOD_SUSY1.e5340_s3126_r9364_p3895
mc16_13TeV:mc16_13TeV.364179.Sherpa_221_NNPDF30NNLO_Wenu_MAXHTPTV280_500_CVetoBVeto.deriv.DAOD_SUSY1.e5340_s3126_r10201_p3895
mc16_13TeV:mc16_13TeV.364179.Sherpa_221_NNPDF30NNLO_Wenu_MAXHTPTV280_500_CVetoBVeto.deriv.DAOD_SUSY1.e5340_s3126_r10724_p3895
mc16_13TeV:mc16_13TeV.364179.Sherpa_221_NNPDF30NNLO_Wenu_MAXHTPTV280_500_CVetoBVeto.deriv.DAOD_SUSY1.e5340_s3126_r9364_p3895
mc16_13TeV:mc16_13TeV.364180.Sherpa_221_NNPDF30NNLO_Wenu_MAXHTPTV280_500_CFilterBVeto.deriv.DAOD_SUSY1.e5340_s3126_r10201_p3895
mc16_13TeV:mc16_13TeV.364180.Sherpa_221_NNPDF30NNLO_Wenu_MAXHTPTV280_500_CFilterBVeto.deriv.DAOD_SUSY1.e5340_s3126_r10724_p3895
mc16_13TeV:mc16_13TeV.364180.Sherpa_221_NNPDF30NNLO_Wenu_MAXHTPTV280_500_CFilterBVeto.deriv.DAOD_SUSY1.e5340_s3126_r9364_p3895
mc16_13TeV:mc16_13TeV.364181.Sherpa_221_NNPDF30NNLO_Wenu_MAXHTPTV280_500_BFilter.deriv.DAOD_SUSY1.e5340_s3126_r10201_p3895
mc16_13TeV:mc16_13TeV.364181.Sherpa_221_NNPDF30NNLO_Wenu_MAXHTPTV280_500_BFilter.deriv.DAOD_SUSY1.e5340_s3126_r10724_p3895
mc16_13TeV:mc16_13TeV.364181.Sherpa_221_NNPDF30NNLO_Wenu_MAXHTPTV280_500_BFilter.deriv.DAOD_SUSY1.e5340_s3126_r9364_p3895
mc16_13TeV:mc16_13TeV.364182.Sherpa_221_NNPDF30NNLO_Wenu_MAXHTPTV500_1000.deriv.DAOD_SUSY1.e5340_s3126_r10201_p3895
mc16_13TeV:mc16_13TeV.364182.Sherpa_221_NNPDF30NNLO_Wenu_MAXHTPTV500_1000.deriv.DAOD_SUSY1.e5340_s3126_r10724_p3895
mc16_13TeV:mc16_13TeV.364182.Sherpa_221_NNPDF30NNLO_Wenu_MAXHTPTV500_1000.deriv.DAOD_SUSY1.e5340_s3126_r9364_p3895
mc16_13TeV:mc16_13TeV.364183.Sherpa_221_NNPDF30NNLO_Wenu_MAXHTPTV1000_E_CMS.deriv.DAOD_SUSY1.e5340_s3126_r10201_p3895
mc16_13TeV:mc16_13TeV.364183.Sherpa_221_NNPDF30NNLO_Wenu_MAXHTPTV1000_E_CMS.deriv.DAOD_SUSY1.e5340_s3126_r10724_p3895
mc16_13TeV:mc16_13TeV.364183.Sherpa_221_NNPDF30NNLO_Wenu_MAXHTPTV1000_E_CMS.deriv.DAOD_SUSY1.e5340_s3126_r9364_p3895
mc16_13TeV:mc16_13TeV.364184.Sherpa_221_NNPDF30NNLO_Wtaunu_MAXHTPTV0_70_CVetoBVeto.deriv.DAOD_SUSY1.e5340_s3126_r10201_p3895
mc16_13TeV:mc16_13TeV.364184.Sherpa_221_NNPDF30NNLO_Wtaunu_MAXHTPTV0_70_CVetoBVeto.deriv.DAOD_SUSY1.e5340_s3126_r10724_p3895
mc16_13TeV:mc16_13TeV.364184.Sherpa_221_NNPDF30NNLO_Wtaunu_MAXHTPTV0_70_CVetoBVeto.deriv.DAOD_SUSY1.e5340_s3126_r9364_p3895
mc16_13TeV:mc16_13TeV.364185.Sherpa_221_NNPDF30NNLO_Wtaunu_MAXHTPTV0_70_CFilterBVeto.deriv.DAOD_SUSY1.e5340_s3126_r10201_p3895
mc16_13TeV:mc16_13TeV.364185.Sherpa_221_NNPDF30NNLO_Wtaunu_MAXHTPTV0_70_CFilterBVeto.deriv.DAOD_SUSY1.e5340_s3126_r10724_p3895
mc16_13TeV:mc16_13TeV.364185.Sherpa_221_NNPDF30NNLO_Wtaunu_MAXHTPTV0_70_CFilterBVeto.deriv.DAOD_SUSY1.e5340_s3126_r9364_p3895
mc16_13TeV:mc16_13TeV.364186.Sherpa_221_NNPDF30NNLO_Wtaunu_MAXHTPTV0_70_BFilter.deriv.DAOD_SUSY1.e5340_s3126_r10201_p3895
mc16_13TeV:mc16_13TeV.364186.Sherpa_221_NNPDF30NNLO_Wtaunu_MAXHTPTV0_70_BFilter.deriv.DAOD_SUSY1.e5340_s3126_r10724_p3895
mc16_13TeV:mc16_13TeV.364186.Sherpa_221_NNPDF30NNLO_Wtaunu_MAXHTPTV0_70_BFilter.deriv.DAOD_SUSY1.e5340_s3126_r9364_p3895
mc16_13TeV:mc16_13TeV.364187.Sherpa_221_NNPDF30NNLO_Wtaunu_MAXHTPTV70_140_CVetoBVeto.deriv.DAOD_SUSY1.e5340_s3126_r10201_p3895
mc16_13TeV:mc16_13TeV.364187.Sherpa_221_NNPDF30NNLO_Wtaunu_MAXHTPTV70_140_CVetoBVeto.deriv.DAOD_SUSY1.e5340_s3126_r10724_p3895
mc16_13TeV:mc16_13TeV.364187.Sherpa_221_NNPDF30NNLO_Wtaunu_MAXHTPTV70_140_CVetoBVeto.deriv.DAOD_SUSY1.e5340_s3126_r9364_p3895
mc16_13TeV:mc16_13TeV.364188.Sherpa_221_NNPDF30NNLO_Wtaunu_MAXHTPTV70_140_CFilterBVeto.deriv.DAOD_SUSY1.e5340_s3126_r10201_p3895
mc16_13TeV:mc16_13TeV.364188.Sherpa_221_NNPDF30NNLO_Wtaunu_MAXHTPTV70_140_CFilterBVeto.deriv.DAOD_SUSY1.e5340_s3126_r10724_p3895
mc16_13TeV:mc16_13TeV.364188.Sherpa_221_NNPDF30NNLO_Wtaunu_MAXHTPTV70_140_CFilterBVeto.deriv.DAOD_SUSY1.e5340_s3126_r9364_p3895
mc16_13TeV:mc16_13TeV.364189.Sherpa_221_NNPDF30NNLO_Wtaunu_MAXHTPTV70_140_BFilter.deriv.DAOD_SUSY1.e5340_s3126_r10201_p3895
mc16_13TeV:mc16_13TeV.364189.Sherpa_221_NNPDF30NNLO_Wtaunu_MAXHTPTV70_140_BFilter.deriv.DAOD_SUSY1.e5340_s3126_r10724_p3895
mc16_13TeV:mc16_13TeV.364189.Sherpa_221_NNPDF30NNLO_Wtaunu_MAXHTPTV70_140_BFilter.deriv.DAOD_SUSY1.e5340_s3126_r9364_p3895
mc16_13TeV:mc16_13TeV.364190.Sherpa_221_NNPDF30NNLO_Wtaunu_MAXHTPTV140_280_CVetoBVeto.deriv.DAOD_SUSY1.e5340_s3126_r10201_p3895
mc16_13TeV:mc16_13TeV.364190.Sherpa_221_NNPDF30NNLO_Wtaunu_MAXHTPTV140_280_CVetoBVeto.deriv.DAOD_SUSY1.e5340_s3126_r10724_p3895
mc16_13TeV:mc16_13TeV.364190.Sherpa_221_NNPDF30NNLO_Wtaunu_MAXHTPTV140_280_CVetoBVeto.deriv.DAOD_SUSY1.e5340_s3126_r9364_p3895
mc16_13TeV:mc16_13TeV.364191.Sherpa_221_NNPDF30NNLO_Wtaunu_MAXHTPTV140_280_CFilterBVeto.deriv.DAOD_SUSY1.e5340_s3126_r10201_p3895
mc16_13TeV:mc16_13TeV.364191.Sherpa_221_NNPDF30NNLO_Wtaunu_MAXHTPTV140_280_CFilterBVeto.deriv.DAOD_SUSY1.e5340_s3126_r10724_p3895
mc16_13TeV:mc16_13TeV.364191.Sherpa_221_NNPDF30NNLO_Wtaunu_MAXHTPTV140_280_CFilterBVeto.deriv.DAOD_SUSY1.e5340_s3126_r9364_p3895
mc16_13TeV:mc16_13TeV.364192.Sherpa_221_NNPDF30NNLO_Wtaunu_MAXHTPTV140_280_BFilter.deriv.DAOD_SUSY1.e5340_s3126_r10201_p3895
mc16_13TeV:mc16_13TeV.364192.Sherpa_221_NNPDF30NNLO_Wtaunu_MAXHTPTV140_280_BFilter.deriv.DAOD_SUSY1.e5340_s3126_r10724_p3895
mc16_13TeV:mc16_13TeV.364192.Sherpa_221_NNPDF30NNLO_Wtaunu_MAXHTPTV140_280_BFilter.deriv.DAOD_SUSY1.e5340_s3126_r9364_p3895
mc16_13TeV:mc16_13TeV.364193.Sherpa_221_NNPDF30NNLO_Wtaunu_MAXHTPTV280_500_CVetoBVeto.deriv.DAOD_SUSY1.e5340_s3126_r10201_p3895
mc16_13TeV:mc16_13TeV.364193.Sherpa_221_NNPDF30NNLO_Wtaunu_MAXHTPTV280_500_CVetoBVeto.deriv.DAOD_SUSY1.e5340_s3126_r10724_p3895
mc16_13TeV:mc16_13TeV.364193.Sherpa_221_NNPDF30NNLO_Wtaunu_MAXHTPTV280_500_CVetoBVeto.deriv.DAOD_SUSY1.e5340_s3126_r9364_p3895
mc16_13TeV:mc16_13TeV.364194.Sherpa_221_NNPDF30NNLO_Wtaunu_MAXHTPTV280_500_CFilterBVeto.deriv.DAOD_SUSY1.e5340_s3126_r10201_p3895
mc16_13TeV:mc16_13TeV.364194.Sherpa_221_NNPDF30NNLO_Wtaunu_MAXHTPTV280_500_CFilterBVeto.deriv.DAOD_SUSY1.e5340_s3126_r10724_p3895
mc16_13TeV:mc16_13TeV.364194.Sherpa_221_NNPDF30NNLO_Wtaunu_MAXHTPTV280_500_CFilterBVeto.deriv.DAOD_SUSY1.e5340_s3126_r9364_p3895
mc16_13TeV:mc16_13TeV.364195.Sherpa_221_NNPDF30NNLO_Wtaunu_MAXHTPTV280_500_BFilter.deriv.DAOD_SUSY1.e5340_s3126_r10201_p3895
mc16_13TeV:mc16_13TeV.364195.Sherpa_221_NNPDF30NNLO_Wtaunu_MAXHTPTV280_500_BFilter.deriv.DAOD_SUSY1.e5340_s3126_r10724_p3895
mc16_13TeV:mc16_13TeV.364195.Sherpa_221_NNPDF30NNLO_Wtaunu_MAXHTPTV280_500_BFilter.deriv.DAOD_SUSY1.e5340_s3126_r9364_p3895
mc16_13TeV:mc16_13TeV.364196.Sherpa_221_NNPDF30NNLO_Wtaunu_MAXHTPTV500_1000.deriv.DAOD_SUSY1.e5340_s3126_r10201_p3895
mc16_13TeV:mc16_13TeV.364196.Sherpa_221_NNPDF30NNLO_Wtaunu_MAXHTPTV500_1000.deriv.DAOD_SUSY1.e5340_s3126_r10724_p3895
mc16_13TeV:mc16_13TeV.364196.Sherpa_221_NNPDF30NNLO_Wtaunu_MAXHTPTV500_1000.deriv.DAOD_SUSY1.e5340_s3126_r9364_p3895
mc16_13TeV:mc16_13TeV.364197.Sherpa_221_NNPDF30NNLO_Wtaunu_MAXHTPTV1000_E_CMS.deriv.DAOD_SUSY1.e5340_s3126_r10201_p3895
mc16_13TeV:mc16_13TeV.364197.Sherpa_221_NNPDF30NNLO_Wtaunu_MAXHTPTV1000_E_CMS.deriv.DAOD_SUSY1.e5340_s3126_r10724_p3895
mc16_13TeV:mc16_13TeV.364197.Sherpa_221_NNPDF30NNLO_Wtaunu_MAXHTPTV1000_E_CMS.deriv.DAOD_SUSY1.e5340_s3126_r9364_p3895
mc16_13TeV:mc16_13TeV.364222.Sherpa_221_NNPDF30NNLO_Znunu_PTV500_1000.deriv.DAOD_SUSY1.e5626_s3126_r10201_p3895
mc16_13TeV:mc16_13TeV.364222.Sherpa_221_NNPDF30NNLO_Znunu_PTV500_1000.deriv.DAOD_SUSY1.e5626_s3126_r10724_p3895
mc16_13TeV:mc16_13TeV.364222.Sherpa_221_NNPDF30NNLO_Znunu_PTV500_1000.deriv.DAOD_SUSY1.e5626_s3126_r9364_p3895
mc16_13TeV:mc16_13TeV.364223.Sherpa_221_NNPDF30NNLO_Znunu_PTV1000_E_CMS.deriv.DAOD_SUSY1.e5626_s3126_r10201_p3895
mc16_13TeV:mc16_13TeV.364223.Sherpa_221_NNPDF30NNLO_Znunu_PTV1000_E_CMS.deriv.DAOD_SUSY1.e5626_s3126_r10724_p3895
mc16_13TeV:mc16_13TeV.364223.Sherpa_221_NNPDF30NNLO_Znunu_PTV1000_E_CMS.deriv.DAOD_SUSY1.e5626_s3126_r9364_p3895


mc16_13TeV:mc16_13TeV.366010.Sh_221_NN30NNLO_Znunu_PTV70_100_BFilter.deriv.DAOD_SUSY1.e6695_s3126_r10201_p3895
mc16_13TeV:mc16_13TeV.366010.Sh_221_NN30NNLO_Znunu_PTV70_100_BFilter.deriv.DAOD_SUSY1.e6695_s3126_r9364_p3895
mc16_13TeV:mc16_13TeV.366011.Sh_221_NN30NNLO_Znunu_PTV100_140_MJJ0_500_BFilter.deriv.DAOD_SUSY1.e6695_s3126_r10201_p3895
mc16_13TeV:mc16_13TeV.366011.Sh_221_NN30NNLO_Znunu_PTV100_140_MJJ0_500_BFilter.deriv.DAOD_SUSY1.e6695_s3126_r9364_p3895
mc16_13TeV:mc16_13TeV.366012.Sh_221_NN30NNLO_Znunu_PTV100_140_MJJ500_1000_BFilter.deriv.DAOD_SUSY1.e6695_s3126_r10201_p3895
mc16_13TeV:mc16_13TeV.366012.Sh_221_NN30NNLO_Znunu_PTV100_140_MJJ500_1000_BFilter.deriv.DAOD_SUSY1.e6695_s3126_r9364_p3895
mc16_13TeV:mc16_13TeV.366013.Sh_221_NN30NNLO_Znunu_PTV100_140_MJJ1000_E_CMS_BFilter.deriv.DAOD_SUSY1.e6695_s3126_r10201_p3895
mc16_13TeV:mc16_13TeV.366013.Sh_221_NN30NNLO_Znunu_PTV100_140_MJJ1000_E_CMS_BFilter.deriv.DAOD_SUSY1.e6695_s3126_r9364_p3895
mc16_13TeV:mc16_13TeV.366014.Sh_221_NN30NNLO_Znunu_PTV140_280_MJJ0_500_BFilter.deriv.DAOD_SUSY1.e6695_s3126_r10201_p3895
mc16_13TeV:mc16_13TeV.366014.Sh_221_NN30NNLO_Znunu_PTV140_280_MJJ0_500_BFilter.deriv.DAOD_SUSY1.e6695_s3126_r9364_p3895
mc16_13TeV:mc16_13TeV.366015.Sh_221_NN30NNLO_Znunu_PTV140_280_MJJ500_1000_BFilter.deriv.DAOD_SUSY1.e6695_s3126_r10201_p3895
mc16_13TeV:mc16_13TeV.366015.Sh_221_NN30NNLO_Znunu_PTV140_280_MJJ500_1000_BFilter.deriv.DAOD_SUSY1.e6695_s3126_r9364_p3895
mc16_13TeV:mc16_13TeV.366016.Sh_221_NN30NNLO_Znunu_PTV140_280_MJJ1000_E_CMS_BFilter.deriv.DAOD_SUSY1.e6695_s3126_r10201_p3895
mc16_13TeV:mc16_13TeV.366016.Sh_221_NN30NNLO_Znunu_PTV140_280_MJJ1000_E_CMS_BFilter.deriv.DAOD_SUSY1.e6695_s3126_r9364_p3895
mc16_13TeV:mc16_13TeV.366017.Sh_221_NN30NNLO_Znunu_PTV280_500_BFilter.deriv.DAOD_SUSY1.e6695_s3126_r10201_p3895
mc16_13TeV:mc16_13TeV.366017.Sh_221_NN30NNLO_Znunu_PTV280_500_BFilter.deriv.DAOD_SUSY1.e6695_s3126_r9364_p3895
mc16_13TeV:mc16_13TeV.366019.Sh_221_NN30NNLO_Znunu_PTV70_100_CFilterBVeto.deriv.DAOD_SUSY1.e7033_s3126_r10201_p3895
mc16_13TeV:mc16_13TeV.366019.Sh_221_NN30NNLO_Znunu_PTV70_100_CFilterBVeto.deriv.DAOD_SUSY1.e7033_s3126_r9364_p3895
mc16_13TeV:mc16_13TeV.366020.Sh_221_NN30NNLO_Znunu_PTV100_140_MJJ0_500_CFilterBVeto.deriv.DAOD_SUSY1.e7033_s3126_r10201_p3895
mc16_13TeV:mc16_13TeV.366020.Sh_221_NN30NNLO_Znunu_PTV100_140_MJJ0_500_CFilterBVeto.deriv.DAOD_SUSY1.e7033_s3126_r9364_p3895
mc16_13TeV:mc16_13TeV.366021.Sh_221_NN30NNLO_Znunu_PTV100_140_MJJ500_1000_CFilterBVeto.deriv.DAOD_SUSY1.e7033_s3126_r10201_p3895
mc16_13TeV:mc16_13TeV.366021.Sh_221_NN30NNLO_Znunu_PTV100_140_MJJ500_1000_CFilterBVeto.deriv.DAOD_SUSY1.e7033_s3126_r9364_p3895
mc16_13TeV:mc16_13TeV.366022.Sh_221_NN30NNLO_Znunu_PTV100_140_MJJ1000_E_CMS_CFilterBVeto.deriv.DAOD_SUSY1.e7033_s3126_r10201_p3895
mc16_13TeV:mc16_13TeV.366022.Sh_221_NN30NNLO_Znunu_PTV100_140_MJJ1000_E_CMS_CFilterBVeto.deriv.DAOD_SUSY1.e7033_s3126_r9364_p3895
mc16_13TeV:mc16_13TeV.366023.Sh_221_NN30NNLO_Znunu_PTV140_280_MJJ0_500_CFilterBVeto.deriv.DAOD_SUSY1.e7033_s3126_r10201_p3895
mc16_13TeV:mc16_13TeV.366023.Sh_221_NN30NNLO_Znunu_PTV140_280_MJJ0_500_CFilterBVeto.deriv.DAOD_SUSY1.e7033_s3126_r9364_p3895
mc16_13TeV:mc16_13TeV.366024.Sh_221_NN30NNLO_Znunu_PTV140_280_MJJ500_1000_CFilterBVeto.deriv.DAOD_SUSY1.e7033_s3126_r10201_p3895
mc16_13TeV:mc16_13TeV.366024.Sh_221_NN30NNLO_Znunu_PTV140_280_MJJ500_1000_CFilterBVeto.deriv.DAOD_SUSY1.e7033_s3126_r9364_p3895
mc16_13TeV:mc16_13TeV.366025.Sh_221_NN30NNLO_Znunu_PTV140_280_MJJ1000_E_CMS_CFilterBVeto.deriv.DAOD_SUSY1.e7033_s3126_r10201_p3895
mc16_13TeV:mc16_13TeV.366025.Sh_221_NN30NNLO_Znunu_PTV140_280_MJJ1000_E_CMS_CFilterBVeto.deriv.DAOD_SUSY1.e7033_s3126_r9364_p3895
mc16_13TeV:mc16_13TeV.366026.Sh_221_NN30NNLO_Znunu_PTV280_500_CFilterBVeto.deriv.DAOD_SUSY1.e7033_s3126_r10201_p3895
mc16_13TeV:mc16_13TeV.366026.Sh_221_NN30NNLO_Znunu_PTV280_500_CFilterBVeto.deriv.DAOD_SUSY1.e7033_s3126_r9364_p3895
mc16_13TeV:mc16_13TeV.366028.Sh_221_NN30NNLO_Znunu_PTV70_100_CVetoBVeto.deriv.DAOD_SUSY1.e7033_s3126_r10201_p3895
mc16_13TeV:mc16_13TeV.366028.Sh_221_NN30NNLO_Znunu_PTV70_100_CVetoBVeto.deriv.DAOD_SUSY1.e7033_s3126_r9364_p3895
mc16_13TeV:mc16_13TeV.366029.Sh_221_NN30NNLO_Znunu_PTV100_140_MJJ0_500_CVetoBVeto.deriv.DAOD_SUSY1.e7033_s3126_r10201_p3895
mc16_13TeV:mc16_13TeV.366029.Sh_221_NN30NNLO_Znunu_PTV100_140_MJJ0_500_CVetoBVeto.deriv.DAOD_SUSY1.e7033_s3126_r9364_p3895
mc16_13TeV:mc16_13TeV.366030.Sh_221_NN30NNLO_Znunu_PTV100_140_MJJ500_1000_CVetoBVeto.deriv.DAOD_SUSY1.e7033_s3126_r10201_p3895
mc16_13TeV:mc16_13TeV.366030.Sh_221_NN30NNLO_Znunu_PTV100_140_MJJ500_1000_CVetoBVeto.deriv.DAOD_SUSY1.e7033_s3126_r9364_p3895
mc16_13TeV:mc16_13TeV.366031.Sh_221_NN30NNLO_Znunu_PTV100_140_MJJ1000_E_CMS_CVetoBVeto.deriv.DAOD_SUSY1.e7033_s3126_r10201_p3895
mc16_13TeV:mc16_13TeV.366031.Sh_221_NN30NNLO_Znunu_PTV100_140_MJJ1000_E_CMS_CVetoBVeto.deriv.DAOD_SUSY1.e7033_s3126_r9364_p3895
mc16_13TeV:mc16_13TeV.366032.Sh_221_NN30NNLO_Znunu_PTV140_280_MJJ0_500_CVetoBVeto.deriv.DAOD_SUSY1.e7033_s3126_r10201_p3895
mc16_13TeV:mc16_13TeV.366032.Sh_221_NN30NNLO_Znunu_PTV140_280_MJJ0_500_CVetoBVeto.deriv.DAOD_SUSY1.e7033_s3126_r11364_p3895
mc16_13TeV:mc16_13TeV.366032.Sh_221_NN30NNLO_Znunu_PTV140_280_MJJ0_500_CVetoBVeto.deriv.DAOD_SUSY1.e7033_s3126_r9364_p3895
mc16_13TeV:mc16_13TeV.366033.Sh_221_NN30NNLO_Znunu_PTV140_280_MJJ500_1000_CVetoBVeto.deriv.DAOD_SUSY1.e7033_s3126_r10201_p3895
mc16_13TeV:mc16_13TeV.366033.Sh_221_NN30NNLO_Znunu_PTV140_280_MJJ500_1000_CVetoBVeto.deriv.DAOD_SUSY1.e7033_s3126_r9364_p3895
mc16_13TeV:mc16_13TeV.366034.Sh_221_NN30NNLO_Znunu_PTV140_280_MJJ1000_E_CMS_CVetoBVeto.deriv.DAOD_SUSY1.e7033_s3126_r10201_p3895
mc16_13TeV:mc16_13TeV.366034.Sh_221_NN30NNLO_Znunu_PTV140_280_MJJ1000_E_CMS_CVetoBVeto.deriv.DAOD_SUSY1.e7033_s3126_r9364_p3895
mc16_13TeV:mc16_13TeV.366035.Sh_221_NN30NNLO_Znunu_PTV280_500_CVetoBVeto.deriv.DAOD_SUSY1.e7033_s3126_r10201_p3895
mc16_13TeV:mc16_13TeV.366035.Sh_221_NN30NNLO_Znunu_PTV280_500_CVetoBVeto.deriv.DAOD_SUSY1.e7033_s3126_r9364_p3895
