mc16_13TeV:mc16_13TeV.304014.MadGraphPythia8EvtGen_A14NNPDF23_3top_SM.deriv.DAOD_SUSY1.e4324_s3126_r10201_p3990
mc16_13TeV:mc16_13TeV.304014.MadGraphPythia8EvtGen_A14NNPDF23_3top_SM.deriv.DAOD_SUSY1.e4324_s3126_r9364_p3990
mc16_13TeV:mc16_13TeV.346343.PhPy8EG_A14NNPDF23_NNPDF30ME_ttH125_allhad.deriv.DAOD_SUSY1.e7148_s3126_r10201_p3990
mc16_13TeV:mc16_13TeV.346343.PhPy8EG_A14NNPDF23_NNPDF30ME_ttH125_allhad.deriv.DAOD_SUSY1.e7148_s3126_r9364_p3990
mc16_13TeV:mc16_13TeV.346344.PhPy8EG_A14NNPDF23_NNPDF30ME_ttH125_semilep.deriv.DAOD_SUSY1.e7148_s3126_r10201_p3990
mc16_13TeV:mc16_13TeV.346344.PhPy8EG_A14NNPDF23_NNPDF30ME_ttH125_semilep.deriv.DAOD_SUSY1.e7148_s3126_r9364_p3990
mc16_13TeV:mc16_13TeV.346345.PhPy8EG_A14NNPDF23_NNPDF30ME_ttH125_dilep.deriv.DAOD_SUSY1.e7148_s3126_r10201_p3990
mc16_13TeV:mc16_13TeV.346345.PhPy8EG_A14NNPDF23_NNPDF30ME_ttH125_dilep.deriv.DAOD_SUSY1.e7148_s3126_r9364_p3990
mc16_13TeV:mc16_13TeV.410560.MadGraphPythia8EvtGen_A14_tZ_4fl_tchan_noAllHad.deriv.DAOD_SUSY1.e5803_s3126_r10201_p3990
mc16_13TeV:mc16_13TeV.410560.MadGraphPythia8EvtGen_A14_tZ_4fl_tchan_noAllHad.deriv.DAOD_SUSY1.e5803_s3126_r9364_p3990
mc16_13TeV:mc16_13TeV.410408.aMcAtNloPythia8EvtGen_tWZ_Ztoll_minDR1.deriv.DAOD_SUSY1.e6423_s3126_r10201_p3990
mc16_13TeV:mc16_13TeV.410408.aMcAtNloPythia8EvtGen_tWZ_Ztoll_minDR1.deriv.DAOD_SUSY1.e6423_s3126_r9364_p3990
mc16_13TeV:mc16_13TeV.412063.aMcAtNloPythia8EvtGen_tllq_NNPDF30_nf4_A14.deriv.DAOD_SUSY1.e7054_a875_r10724_p3990
mc16_13TeV:mc16_13TeV.412063.aMcAtNloPythia8EvtGen_tllq_NNPDF30_nf4_A14.deriv.DAOD_SUSY1.e7054_a875_r10201_p3990
mc16_13TeV:mc16_13TeV.412063.aMcAtNloPythia8EvtGen_tllq_NNPDF30_nf4_A14.deriv.DAOD_SUSY1.e7054_a875_r9364_p3990
mc16_13TeV:mc16_13TeV.342285.Pythia8EvtGen_A14NNPDF23LO_ZH125_inc.deriv.DAOD_SUSY1.e4246_s3126_r10724_p3990
mc16_13TeV:mc16_13TeV.342285.Pythia8EvtGen_A14NNPDF23LO_ZH125_inc.deriv.DAOD_SUSY1.e4246_s3126_r10201_p3990
mc16_13TeV:mc16_13TeV.342285.Pythia8EvtGen_A14NNPDF23LO_ZH125_inc.deriv.DAOD_SUSY1.e4246_s3126_r9364_p3990
mc16_13TeV:mc16_13TeV.342284.Pythia8EvtGen_A14NNPDF23LO_WH125_inc.deriv.DAOD_SUSY1.e4246_s3126_r10724_p3990
mc16_13TeV:mc16_13TeV.342284.Pythia8EvtGen_A14NNPDF23LO_WH125_inc.deriv.DAOD_SUSY1.e4246_s3126_r10201_p3990
mc16_13TeV:mc16_13TeV.342284.Pythia8EvtGen_A14NNPDF23LO_WH125_inc.deriv.DAOD_SUSY1.e4246_s3126_r9364_p3990
mc16_13TeV:mc16_13TeV.346632.PowhegPy8EG_A14NNPDF23_NNPDF30ME_ttH125_ZZ4nu_semilep.deriv.DAOD_SUSY1.e7667_s3126_r10724_p3990
mc16_13TeV:mc16_13TeV.346632.PowhegPy8EG_A14NNPDF23_NNPDF30ME_ttH125_ZZ4nu_semilep.deriv.DAOD_SUSY1.e7667_s3126_r10201_p3990
mc16_13TeV:mc16_13TeV.346632.PowhegPy8EG_A14NNPDF23_NNPDF30ME_ttH125_ZZ4nu_semilep.deriv.DAOD_SUSY1.e7667_s3126_r9364_p3990
mc16_13TeV:mc16_13TeV.346633.PowhegPy8EG_A14NNPDF23_NNPDF30ME_ttH125_ZZ4nu_allhad.deriv.DAOD_SUSY1.e7629_s3126_r10724_p3990
mc16_13TeV:mc16_13TeV.346633.PowhegPy8EG_A14NNPDF23_NNPDF30ME_ttH125_ZZ4nu_allhad.deriv.DAOD_SUSY1.e7629_s3126_r10201_p3990
mc16_13TeV:mc16_13TeV.346633.PowhegPy8EG_A14NNPDF23_NNPDF30ME_ttH125_ZZ4nu_allhad.deriv.DAOD_SUSY1.e7629_s3126_r9364_p3990
mc16_13TeV:mc16_13TeV.410081.MadGraphPythia8EvtGen_A14NNPDF23_ttbarWW.deriv.DAOD_SUSY1.e4111_s3126_r10724_p3990
mc16_13TeV:mc16_13TeV.410081.MadGraphPythia8EvtGen_A14NNPDF23_ttbarWW.deriv.DAOD_SUSY1.e4111_s3126_r10201_p3990
mc16_13TeV:mc16_13TeV.410080.MadGraphPythia8EvtGen_A14NNPDF23_4topSM.deriv.DAOD_SUSY1.e4111_s3126_r10724_p3990
mc16_13TeV:mc16_13TeV.410080.MadGraphPythia8EvtGen_A14NNPDF23_4topSM.deriv.DAOD_SUSY1.e4111_s3126_r10201_p3990
mc16_13TeV:mc16_13TeV.410080.MadGraphPythia8EvtGen_A14NNPDF23_4topSM.deriv.DAOD_SUSY1.e4111_s3126_r9364_p3990
mc16_13TeV:mc16_13TeV.346634.PowhegPy8EG_A14NNPDF23_NNPDF30ME_ttH125_ZZ4nu_dilep.deriv.DAOD_SUSY1.e7629_s3126_r10724_p3990
mc16_13TeV:mc16_13TeV.346634.PowhegPy8EG_A14NNPDF23_NNPDF30ME_ttH125_ZZ4nu_dilep.deriv.DAOD_SUSY1.e7629_s3126_r10201_p3990
mc16_13TeV:mc16_13TeV.346634.PowhegPy8EG_A14NNPDF23_NNPDF30ME_ttH125_ZZ4nu_dilep.deriv.DAOD_SUSY1.e7629_s3126_r9364_p3990
