mc16_13TeV:mc16_13TeV.366025.Sh_221_NN30NNLO_Znunu_PTV140_280_MJJ1000_E_CMS_CFilterBVeto.deriv.DAOD_SUSY1.e7033_s3126_r10724_p3990
mc16_13TeV:mc16_13TeV.366022.Sh_221_NN30NNLO_Znunu_PTV100_140_MJJ1000_E_CMS_CFilterBVeto.deriv.DAOD_SUSY1.e7033_s3126_r10201_p3990
mc16_13TeV:mc16_13TeV.366026.Sh_221_NN30NNLO_Znunu_PTV280_500_CFilterBVeto.deriv.DAOD_SUSY1.e7033_s3126_r9364_p3990
mc16_13TeV:mc16_13TeV.366026.Sh_221_NN30NNLO_Znunu_PTV280_500_CFilterBVeto.deriv.DAOD_SUSY1.e7033_s3126_r10724_p3990
mc16_13TeV:mc16_13TeV.366023.Sh_221_NN30NNLO_Znunu_PTV140_280_MJJ0_500_CFilterBVeto.deriv.DAOD_SUSY1.e7033_s3126_r9364_p3990
mc16_13TeV:mc16_13TeV.366024.Sh_221_NN30NNLO_Znunu_PTV140_280_MJJ500_1000_CFilterBVeto.deriv.DAOD_SUSY1.e7033_s3126_r10201_p3990
mc16_13TeV:mc16_13TeV.366021.Sh_221_NN30NNLO_Znunu_PTV100_140_MJJ500_1000_CFilterBVeto.deriv.DAOD_SUSY1.e7033_s3126_r10724_p3990
mc16_13TeV:mc16_13TeV.366023.Sh_221_NN30NNLO_Znunu_PTV140_280_MJJ0_500_CFilterBVeto.deriv.DAOD_SUSY1.e7033_s3126_r10724_p3990
mc16_13TeV:mc16_13TeV.366019.Sh_221_NN30NNLO_Znunu_PTV70_100_CFilterBVeto.deriv.DAOD_SUSY1.e7033_s3126_r10724_p3990
mc16_13TeV:mc16_13TeV.366022.Sh_221_NN30NNLO_Znunu_PTV100_140_MJJ1000_E_CMS_CFilterBVeto.deriv.DAOD_SUSY1.e7033_s3126_r10724_p3990
mc16_13TeV:mc16_13TeV.366026.Sh_221_NN30NNLO_Znunu_PTV280_500_CFilterBVeto.deriv.DAOD_SUSY1.e7033_s3126_r10201_p3990
mc16_13TeV:mc16_13TeV.366021.Sh_221_NN30NNLO_Znunu_PTV100_140_MJJ500_1000_CFilterBVeto.deriv.DAOD_SUSY1.e7033_s3126_r9364_p3990
mc16_13TeV:mc16_13TeV.366022.Sh_221_NN30NNLO_Znunu_PTV100_140_MJJ1000_E_CMS_CFilterBVeto.deriv.DAOD_SUSY1.e7033_s3126_r9364_p3990
mc16_13TeV:mc16_13TeV.366024.Sh_221_NN30NNLO_Znunu_PTV140_280_MJJ500_1000_CFilterBVeto.deriv.DAOD_SUSY1.e7033_s3126_r9364_p3990
mc16_13TeV:mc16_13TeV.366020.Sh_221_NN30NNLO_Znunu_PTV100_140_MJJ0_500_CFilterBVeto.deriv.DAOD_SUSY1.e7033_s3126_r10724_p3990
mc16_13TeV:mc16_13TeV.366020.Sh_221_NN30NNLO_Znunu_PTV100_140_MJJ0_500_CFilterBVeto.deriv.DAOD_SUSY1.e7033_s3126_r10201_p3990
mc16_13TeV:mc16_13TeV.366020.Sh_221_NN30NNLO_Znunu_PTV100_140_MJJ0_500_CFilterBVeto.deriv.DAOD_SUSY1.e7033_s3126_r9364_p3990
mc16_13TeV:mc16_13TeV.366024.Sh_221_NN30NNLO_Znunu_PTV140_280_MJJ500_1000_CFilterBVeto.deriv.DAOD_SUSY1.e7033_s3126_r10724_p3990
mc16_13TeV:mc16_13TeV.366025.Sh_221_NN30NNLO_Znunu_PTV140_280_MJJ1000_E_CMS_CFilterBVeto.deriv.DAOD_SUSY1.e7033_s3126_r9364_p3990
mc16_13TeV:mc16_13TeV.366023.Sh_221_NN30NNLO_Znunu_PTV140_280_MJJ0_500_CFilterBVeto.deriv.DAOD_SUSY1.e7033_s3126_r10201_p3990
mc16_13TeV:mc16_13TeV.366021.Sh_221_NN30NNLO_Znunu_PTV100_140_MJJ500_1000_CFilterBVeto.deriv.DAOD_SUSY1.e7033_s3126_r10201_p3990
mc16_13TeV:mc16_13TeV.366025.Sh_221_NN30NNLO_Znunu_PTV140_280_MJJ1000_E_CMS_CFilterBVeto.deriv.DAOD_SUSY1.e7033_s3126_r10201_p3990
mc16_13TeV:mc16_13TeV.366019.Sh_221_NN30NNLO_Znunu_PTV70_100_CFilterBVeto.deriv.DAOD_SUSY1.e7033_s3126_r10201_p3990
mc16_13TeV:mc16_13TeV.366019.Sh_221_NN30NNLO_Znunu_PTV70_100_CFilterBVeto.deriv.DAOD_SUSY1.e7033_s3126_r9364_p3990
