mc15_13TeV:mc15_13TeV.361020.Pythia8EvtGen_A14NNPDF23LO_jetjet_JZ0W.merge.DAOD_TRUTH3.e3569_p2768
mc15_13TeV:mc15_13TeV.361021.Pythia8EvtGen_A14NNPDF23LO_jetjet_JZ1W.merge.DAOD_TRUTH3.e3569_p2768
mc15_13TeV:mc15_13TeV.361022.Pythia8EvtGen_A14NNPDF23LO_jetjet_JZ2W.merge.DAOD_TRUTH3.e3668_p2768
mc15_13TeV:mc15_13TeV.361023.Pythia8EvtGen_A14NNPDF23LO_jetjet_JZ3W.merge.DAOD_TRUTH3.e3668_p2768
mc15_13TeV:mc15_13TeV.361024.Pythia8EvtGen_A14NNPDF23LO_jetjet_JZ4W.merge.DAOD_TRUTH3.e3668_p2768
mc15_13TeV:mc15_13TeV.361025.Pythia8EvtGen_A14NNPDF23LO_jetjet_JZ5W.merge.DAOD_TRUTH3.e3668_p2768
mc15_13TeV:mc15_13TeV.361026.Pythia8EvtGen_A14NNPDF23LO_jetjet_JZ6W.merge.DAOD_TRUTH3.e3569_p2768
mc15_13TeV:mc15_13TeV.361027.Pythia8EvtGen_A14NNPDF23LO_jetjet_JZ7W.merge.DAOD_TRUTH3.e3668_p2768
mc15_13TeV:mc15_13TeV.361028.Pythia8EvtGen_A14NNPDF23LO_jetjet_JZ8W.merge.DAOD_TRUTH3.e3569_p2768
mc15_13TeV:mc15_13TeV.361029.Pythia8EvtGen_A14NNPDF23LO_jetjet_JZ9W.merge.DAOD_TRUTH3.e3569_p2768
mc15_13TeV:mc15_13TeV.361030.Pythia8EvtGen_A14NNPDF23LO_jetjet_JZ10W.merge.DAOD_TRUTH3.e3569_p2768
mc15_13TeV:mc15_13TeV.361031.Pythia8EvtGen_A14NNPDF23LO_jetjet_JZ11W.merge.DAOD_TRUTH3.e3569_p2768
mc15_13TeV:mc15_13TeV.361032.Pythia8EvtGen_A14NNPDF23LO_jetjet_JZ12W.merge.DAOD_TRUTH3.e3668_p2768
mc15_13TeV:mc15_13TeV.361069.Sherpa_CT10_llvvjj_ss_EW4.merge.DAOD_TRUTH3.e3836_p2949
mc15_13TeV:mc15_13TeV.361070.Sherpa_CT10_llvvjj_ss_EW6.merge.DAOD_TRUTH3.e3836_p2949
mc15_13TeV:mc15_13TeV.361071.Sherpa_CT10_lllvjj_EW6.merge.DAOD_TRUTH3.e3836_p2949
mc15_13TeV:mc15_13TeV.361072.Sherpa_CT10_lllljj_EW6.merge.DAOD_TRUTH3.e3836_p2949
mc15_13TeV:mc15_13TeV.361073.Sherpa_CT10_ggllll.merge.DAOD_TRUTH3.e3836_p2949
mc15_13TeV:mc15_13TeV.361077.Sherpa_CT10_ggllvv.merge.DAOD_TRUTH3.e4641_p2949
mc15_13TeV:mc15_13TeV.363355.Sherpa_221_NNPDF30NNLO_ZqqZvv.merge.DAOD_TRUTH3.e5525_p2949
mc15_13TeV:mc15_13TeV.363356.Sherpa_221_NNPDF30NNLO_ZqqZll.merge.DAOD_TRUTH3.e5525_p2949
mc15_13TeV:mc15_13TeV.363357.Sherpa_221_NNPDF30NNLO_WqqZvv.merge.DAOD_TRUTH3.e5525_p2949
mc15_13TeV:mc15_13TeV.363358.Sherpa_221_NNPDF30NNLO_WqqZll.merge.DAOD_TRUTH3.e5525_p2949
mc15_13TeV:mc15_13TeV.363359.Sherpa_221_NNPDF30NNLO_WpqqWmlv.merge.DAOD_TRUTH3.e5583_p2949
mc15_13TeV:mc15_13TeV.363360.Sherpa_221_NNPDF30NNLO_WplvWmqq.merge.DAOD_TRUTH3.e5583_p2949
mc15_13TeV:mc15_13TeV.363489.Sherpa_221_NNPDF30NNLO_WlvZqq.merge.DAOD_TRUTH3.e5525_p2949
mc15_13TeV:mc15_13TeV.363490.Sherpa_221_NNPDF30NNLO_llll.merge.DAOD_TRUTH3.e5332_p2949
mc15_13TeV:mc15_13TeV.363491.Sherpa_221_NNPDF30NNLO_lllv.merge.DAOD_TRUTH3.e5332_p2949
mc15_13TeV:mc15_13TeV.363492.Sherpa_221_NNPDF30NNLO_llvv.merge.DAOD_TRUTH3.e5332_p2949
mc15_13TeV:mc15_13TeV.363493.Sherpa_221_NNPDF30NNLO_lvvv.merge.DAOD_TRUTH3.e5332_p2949
mc15_13TeV:mc15_13TeV.363494.Sherpa_221_NNPDF30NNLO_vvvv.merge.DAOD_TRUTH3.e5332_p2949
mc15_13TeV:mc15_13TeV.364100.Sherpa_221_NNPDF30NNLO_Zmumu_MAXHTPTV0_70_CVetoBVeto.merge.DAOD_TRUTH3.e5271_p2768
mc15_13TeV:mc15_13TeV.364101.Sherpa_221_NNPDF30NNLO_Zmumu_MAXHTPTV0_70_CFilterBVeto.merge.DAOD_TRUTH3.e5271_p2768
mc15_13TeV:mc15_13TeV.364102.Sherpa_221_NNPDF30NNLO_Zmumu_MAXHTPTV0_70_BFilter.merge.DAOD_TRUTH3.e5271_p2768
mc15_13TeV:mc15_13TeV.364103.Sherpa_221_NNPDF30NNLO_Zmumu_MAXHTPTV70_140_CVetoBVeto.merge.DAOD_TRUTH3.e5271_p2768
mc15_13TeV:mc15_13TeV.364104.Sherpa_221_NNPDF30NNLO_Zmumu_MAXHTPTV70_140_CFilterBVeto.merge.DAOD_TRUTH3.e5271_p2768
mc15_13TeV:mc15_13TeV.364105.Sherpa_221_NNPDF30NNLO_Zmumu_MAXHTPTV70_140_BFilter.merge.DAOD_TRUTH3.e5271_p2768
mc15_13TeV:mc15_13TeV.364106.Sherpa_221_NNPDF30NNLO_Zmumu_MAXHTPTV140_280_CVetoBVeto.merge.DAOD_TRUTH3.e5271_p2768
mc15_13TeV:mc15_13TeV.364107.Sherpa_221_NNPDF30NNLO_Zmumu_MAXHTPTV140_280_CFilterBVeto.merge.DAOD_TRUTH3.e5271_p2768
mc15_13TeV:mc15_13TeV.364108.Sherpa_221_NNPDF30NNLO_Zmumu_MAXHTPTV140_280_BFilter.merge.DAOD_TRUTH3.e5271_p2768
mc15_13TeV:mc15_13TeV.364109.Sherpa_221_NNPDF30NNLO_Zmumu_MAXHTPTV280_500_CVetoBVeto.merge.DAOD_TRUTH3.e5271_p2768
mc15_13TeV:mc15_13TeV.364110.Sherpa_221_NNPDF30NNLO_Zmumu_MAXHTPTV280_500_CFilterBVeto.merge.DAOD_TRUTH3.e5271_p2768
mc15_13TeV:mc15_13TeV.364111.Sherpa_221_NNPDF30NNLO_Zmumu_MAXHTPTV280_500_BFilter.merge.DAOD_TRUTH3.e5271_p2768
mc15_13TeV:mc15_13TeV.364112.Sherpa_221_NNPDF30NNLO_Zmumu_MAXHTPTV500_1000.merge.DAOD_TRUTH3.e5271_p2768
mc15_13TeV:mc15_13TeV.364113.Sherpa_221_NNPDF30NNLO_Zmumu_MAXHTPTV1000_E_CMS.merge.DAOD_TRUTH3.e5271_p2768
mc15_13TeV:mc15_13TeV.364114.Sherpa_221_NNPDF30NNLO_Zee_MAXHTPTV0_70_CVetoBVeto.merge.DAOD_TRUTH3.e5299_p2768
mc15_13TeV:mc15_13TeV.364115.Sherpa_221_NNPDF30NNLO_Zee_MAXHTPTV0_70_CFilterBVeto.merge.DAOD_TRUTH3.e5299_p2768
mc15_13TeV:mc15_13TeV.364116.Sherpa_221_NNPDF30NNLO_Zee_MAXHTPTV0_70_BFilter.merge.DAOD_TRUTH3.e5299_p2768
mc15_13TeV:mc15_13TeV.364117.Sherpa_221_NNPDF30NNLO_Zee_MAXHTPTV70_140_CVetoBVeto.merge.DAOD_TRUTH3.e5299_p2768
mc15_13TeV:mc15_13TeV.364118.Sherpa_221_NNPDF30NNLO_Zee_MAXHTPTV70_140_CFilterBVeto.merge.DAOD_TRUTH3.e5299_p2768
mc15_13TeV:mc15_13TeV.364119.Sherpa_221_NNPDF30NNLO_Zee_MAXHTPTV70_140_BFilter.merge.DAOD_TRUTH3.e5299_p2768
mc15_13TeV:mc15_13TeV.364120.Sherpa_221_NNPDF30NNLO_Zee_MAXHTPTV140_280_CVetoBVeto.merge.DAOD_TRUTH3.e5299_p2768
mc15_13TeV:mc15_13TeV.364121.Sherpa_221_NNPDF30NNLO_Zee_MAXHTPTV140_280_CFilterBVeto.merge.DAOD_TRUTH3.e5299_p2768
mc15_13TeV:mc15_13TeV.364122.Sherpa_221_NNPDF30NNLO_Zee_MAXHTPTV140_280_BFilter.merge.DAOD_TRUTH3.e5299_p2768
mc15_13TeV:mc15_13TeV.364123.Sherpa_221_NNPDF30NNLO_Zee_MAXHTPTV280_500_CVetoBVeto.merge.DAOD_TRUTH3.e5299_p2768
mc15_13TeV:mc15_13TeV.364124.Sherpa_221_NNPDF30NNLO_Zee_MAXHTPTV280_500_CFilterBVeto.merge.DAOD_TRUTH3.e5299_p2768
mc15_13TeV:mc15_13TeV.364125.Sherpa_221_NNPDF30NNLO_Zee_MAXHTPTV280_500_BFilter.merge.DAOD_TRUTH3.e5299_p2768
mc15_13TeV:mc15_13TeV.364126.Sherpa_221_NNPDF30NNLO_Zee_MAXHTPTV500_1000.merge.DAOD_TRUTH3.e5299_p2768
mc15_13TeV:mc15_13TeV.364127.Sherpa_221_NNPDF30NNLO_Zee_MAXHTPTV1000_E_CMS.merge.DAOD_TRUTH3.e5299_p2768
mc15_13TeV:mc15_13TeV.364128.Sherpa_221_NNPDF30NNLO_Ztautau_MAXHTPTV0_70_CVetoBVeto.merge.DAOD_TRUTH3.e5307_p2768
mc15_13TeV:mc15_13TeV.364129.Sherpa_221_NNPDF30NNLO_Ztautau_MAXHTPTV0_70_CFilterBVeto.merge.DAOD_TRUTH3.e5307_p2768
mc15_13TeV:mc15_13TeV.364130.Sherpa_221_NNPDF30NNLO_Ztautau_MAXHTPTV0_70_BFilter.merge.DAOD_TRUTH3.e5307_p2768
mc15_13TeV:mc15_13TeV.364131.Sherpa_221_NNPDF30NNLO_Ztautau_MAXHTPTV70_140_CVetoBVeto.merge.DAOD_TRUTH3.e5307_p2768
mc15_13TeV:mc15_13TeV.364132.Sherpa_221_NNPDF30NNLO_Ztautau_MAXHTPTV70_140_CFilterBVeto.merge.DAOD_TRUTH3.e5307_p2768
mc15_13TeV:mc15_13TeV.364133.Sherpa_221_NNPDF30NNLO_Ztautau_MAXHTPTV70_140_BFilter.merge.DAOD_TRUTH3.e5307_p2768
mc15_13TeV:mc15_13TeV.364134.Sherpa_221_NNPDF30NNLO_Ztautau_MAXHTPTV140_280_CVetoBVeto.merge.DAOD_TRUTH3.e5307_p2768
mc15_13TeV:mc15_13TeV.364135.Sherpa_221_NNPDF30NNLO_Ztautau_MAXHTPTV140_280_CFilterBVeto.merge.DAOD_TRUTH3.e5307_p2768
mc15_13TeV:mc15_13TeV.364136.Sherpa_221_NNPDF30NNLO_Ztautau_MAXHTPTV140_280_BFilter.merge.DAOD_TRUTH3.e5307_p2768
mc15_13TeV:mc15_13TeV.364137.Sherpa_221_NNPDF30NNLO_Ztautau_MAXHTPTV280_500_CVetoBVeto.merge.DAOD_TRUTH3.e5307_p2768
mc15_13TeV:mc15_13TeV.364138.Sherpa_221_NNPDF30NNLO_Ztautau_MAXHTPTV280_500_CFilterBVeto.merge.DAOD_TRUTH3.e5313_p2768
mc15_13TeV:mc15_13TeV.364139.Sherpa_221_NNPDF30NNLO_Ztautau_MAXHTPTV280_500_BFilter.merge.DAOD_TRUTH3.e5313_p2768
mc15_13TeV:mc15_13TeV.364140.Sherpa_221_NNPDF30NNLO_Ztautau_MAXHTPTV500_1000.merge.DAOD_TRUTH3.e5307_p2768
mc15_13TeV:mc15_13TeV.364141.Sherpa_221_NNPDF30NNLO_Ztautau_MAXHTPTV1000_E_CMS.merge.DAOD_TRUTH3.e5307_p2768
mc15_13TeV:mc15_13TeV.364142.Sherpa_221_NNPDF30NNLO_Znunu_MAXHTPTV0_70_CVetoBVeto.merge.DAOD_TRUTH3.e5308_p2768
mc15_13TeV:mc15_13TeV.364143.Sherpa_221_NNPDF30NNLO_Znunu_MAXHTPTV0_70_CFilterBVeto.merge.DAOD_TRUTH3.e5308_p3135
mc15_13TeV:mc15_13TeV.364144.Sherpa_221_NNPDF30NNLO_Znunu_MAXHTPTV0_70_BFilter.merge.DAOD_TRUTH3.e5308_p3135
mc15_13TeV:mc15_13TeV.364145.Sherpa_221_NNPDF30NNLO_Znunu_MAXHTPTV70_140_CVetoBVeto.merge.DAOD_TRUTH3.e5308_p2768
mc15_13TeV:mc15_13TeV.364146.Sherpa_221_NNPDF30NNLO_Znunu_MAXHTPTV70_140_CFilterBVeto.merge.DAOD_TRUTH3.e5308_p3135
mc15_13TeV:mc15_13TeV.364147.Sherpa_221_NNPDF30NNLO_Znunu_MAXHTPTV70_140_BFilter.merge.DAOD_TRUTH3.e5308_p3135
mc15_13TeV:mc15_13TeV.364148.Sherpa_221_NNPDF30NNLO_Znunu_MAXHTPTV140_280_CVetoBVeto.merge.DAOD_TRUTH3.e5308_p2768
mc15_13TeV:mc15_13TeV.364149.Sherpa_221_NNPDF30NNLO_Znunu_MAXHTPTV140_280_CFilterBVeto.merge.DAOD_TRUTH3.e5308_p3135
mc15_13TeV:mc15_13TeV.364150.Sherpa_221_NNPDF30NNLO_Znunu_MAXHTPTV140_280_BFilter.merge.DAOD_TRUTH3.e5308_p3135
mc15_13TeV:mc15_13TeV.364151.Sherpa_221_NNPDF30NNLO_Znunu_MAXHTPTV280_500_CVetoBVeto.merge.DAOD_TRUTH3.e5308_p2768
mc15_13TeV:mc15_13TeV.364152.Sherpa_221_NNPDF30NNLO_Znunu_MAXHTPTV280_500_CFilterBVeto.merge.DAOD_TRUTH3.e5308_p3135
mc15_13TeV:mc15_13TeV.364153.Sherpa_221_NNPDF30NNLO_Znunu_MAXHTPTV280_500_BFilter.merge.DAOD_TRUTH3.e5308_p3135
mc15_13TeV:mc15_13TeV.364154.Sherpa_221_NNPDF30NNLO_Znunu_MAXHTPTV500_1000.merge.DAOD_TRUTH3.e5308_p2768
mc15_13TeV:mc15_13TeV.364155.Sherpa_221_NNPDF30NNLO_Znunu_MAXHTPTV1000_E_CMS.merge.DAOD_TRUTH3.e5308_p2768
mc15_13TeV:mc15_13TeV.364156.Sherpa_221_NNPDF30NNLO_Wmunu_MAXHTPTV0_70_CVetoBVeto.merge.DAOD_TRUTH3.e5340_p2768
mc15_13TeV:mc15_13TeV.364157.Sherpa_221_NNPDF30NNLO_Wmunu_MAXHTPTV0_70_CFilterBVeto.merge.DAOD_TRUTH3.e5340_p2768
mc15_13TeV:mc15_13TeV.364158.Sherpa_221_NNPDF30NNLO_Wmunu_MAXHTPTV0_70_BFilter.merge.DAOD_TRUTH3.e5340_p2768
mc15_13TeV:mc15_13TeV.364159.Sherpa_221_NNPDF30NNLO_Wmunu_MAXHTPTV70_140_CVetoBVeto.merge.DAOD_TRUTH3.e5340_p2768
mc15_13TeV:mc15_13TeV.364160.Sherpa_221_NNPDF30NNLO_Wmunu_MAXHTPTV70_140_CFilterBVeto.merge.DAOD_TRUTH3.e5340_p2768
mc15_13TeV:mc15_13TeV.364161.Sherpa_221_NNPDF30NNLO_Wmunu_MAXHTPTV70_140_BFilter.merge.DAOD_TRUTH3.e5340_p2768
mc15_13TeV:mc15_13TeV.364162.Sherpa_221_NNPDF30NNLO_Wmunu_MAXHTPTV140_280_CVetoBVeto.merge.DAOD_TRUTH3.e5340_p2768
mc15_13TeV:mc15_13TeV.364163.Sherpa_221_NNPDF30NNLO_Wmunu_MAXHTPTV140_280_CFilterBVeto.merge.DAOD_TRUTH3.e5340_p2768
mc15_13TeV:mc15_13TeV.364164.Sherpa_221_NNPDF30NNLO_Wmunu_MAXHTPTV140_280_BFilter.merge.DAOD_TRUTH3.e5340_p2768
mc15_13TeV:mc15_13TeV.364165.Sherpa_221_NNPDF30NNLO_Wmunu_MAXHTPTV280_500_CVetoBVeto.merge.DAOD_TRUTH3.e5340_p2768
mc15_13TeV:mc15_13TeV.364166.Sherpa_221_NNPDF30NNLO_Wmunu_MAXHTPTV280_500_CFilterBVeto.merge.DAOD_TRUTH3.e5340_p2768
mc15_13TeV:mc15_13TeV.364167.Sherpa_221_NNPDF30NNLO_Wmunu_MAXHTPTV280_500_BFilter.merge.DAOD_TRUTH3.e5340_p2768
mc15_13TeV:mc15_13TeV.364168.Sherpa_221_NNPDF30NNLO_Wmunu_MAXHTPTV500_1000.merge.DAOD_TRUTH3.e5340_p2768
mc15_13TeV:mc15_13TeV.364169.Sherpa_221_NNPDF30NNLO_Wmunu_MAXHTPTV1000_E_CMS.merge.DAOD_TRUTH3.e5340_p2768
mc15_13TeV:mc15_13TeV.364170.Sherpa_221_NNPDF30NNLO_Wenu_MAXHTPTV0_70_CVetoBVeto.merge.DAOD_TRUTH3.e5340_p2768
mc15_13TeV:mc15_13TeV.364171.Sherpa_221_NNPDF30NNLO_Wenu_MAXHTPTV0_70_CFilterBVeto.merge.DAOD_TRUTH3.e5340_p2768
mc15_13TeV:mc15_13TeV.364172.Sherpa_221_NNPDF30NNLO_Wenu_MAXHTPTV0_70_BFilter.merge.DAOD_TRUTH3.e5340_p2768
mc15_13TeV:mc15_13TeV.364173.Sherpa_221_NNPDF30NNLO_Wenu_MAXHTPTV70_140_CVetoBVeto.merge.DAOD_TRUTH3.e5340_p2768
mc15_13TeV:mc15_13TeV.364174.Sherpa_221_NNPDF30NNLO_Wenu_MAXHTPTV70_140_CFilterBVeto.merge.DAOD_TRUTH3.e5340_p2768
mc15_13TeV:mc15_13TeV.364175.Sherpa_221_NNPDF30NNLO_Wenu_MAXHTPTV70_140_BFilter.merge.DAOD_TRUTH3.e5340_p2768
mc15_13TeV:mc15_13TeV.364176.Sherpa_221_NNPDF30NNLO_Wenu_MAXHTPTV140_280_CVetoBVeto.merge.DAOD_TRUTH3.e5340_p2768
mc15_13TeV:mc15_13TeV.364177.Sherpa_221_NNPDF30NNLO_Wenu_MAXHTPTV140_280_CFilterBVeto.merge.DAOD_TRUTH3.e5340_p2768
mc15_13TeV:mc15_13TeV.364178.Sherpa_221_NNPDF30NNLO_Wenu_MAXHTPTV140_280_BFilter.merge.DAOD_TRUTH3.e5340_p2768
mc15_13TeV:mc15_13TeV.364179.Sherpa_221_NNPDF30NNLO_Wenu_MAXHTPTV280_500_CVetoBVeto.merge.DAOD_TRUTH3.e5340_p2768
mc15_13TeV:mc15_13TeV.364180.Sherpa_221_NNPDF30NNLO_Wenu_MAXHTPTV280_500_CFilterBVeto.merge.DAOD_TRUTH3.e5340_p2768
mc15_13TeV:mc15_13TeV.364181.Sherpa_221_NNPDF30NNLO_Wenu_MAXHTPTV280_500_BFilter.merge.DAOD_TRUTH3.e5340_p2768
mc15_13TeV:mc15_13TeV.364182.Sherpa_221_NNPDF30NNLO_Wenu_MAXHTPTV500_1000.merge.DAOD_TRUTH3.e5340_p2768
mc15_13TeV:mc15_13TeV.364183.Sherpa_221_NNPDF30NNLO_Wenu_MAXHTPTV1000_E_CMS.merge.DAOD_TRUTH3.e5340_p2768
mc15_13TeV:mc15_13TeV.364184.Sherpa_221_NNPDF30NNLO_Wtaunu_MAXHTPTV0_70_CVetoBVeto.merge.DAOD_TRUTH3.e5340_p2768
mc15_13TeV:mc15_13TeV.364185.Sherpa_221_NNPDF30NNLO_Wtaunu_MAXHTPTV0_70_CFilterBVeto.merge.DAOD_TRUTH3.e5340_p2768
mc15_13TeV:mc15_13TeV.364186.Sherpa_221_NNPDF30NNLO_Wtaunu_MAXHTPTV0_70_BFilter.merge.DAOD_TRUTH3.e5340_p2768
mc15_13TeV:mc15_13TeV.364187.Sherpa_221_NNPDF30NNLO_Wtaunu_MAXHTPTV70_140_CVetoBVeto.merge.DAOD_TRUTH3.e5340_p2768
mc15_13TeV:mc15_13TeV.364188.Sherpa_221_NNPDF30NNLO_Wtaunu_MAXHTPTV70_140_CFilterBVeto.merge.DAOD_TRUTH3.e5340_p2768
mc15_13TeV:mc15_13TeV.364189.Sherpa_221_NNPDF30NNLO_Wtaunu_MAXHTPTV70_140_BFilter.merge.DAOD_TRUTH3.e5340_e4083_p2768
mc15_13TeV:mc15_13TeV.364190.Sherpa_221_NNPDF30NNLO_Wtaunu_MAXHTPTV140_280_CVetoBVeto.merge.DAOD_TRUTH3.e5340_p2768
mc15_13TeV:mc15_13TeV.364191.Sherpa_221_NNPDF30NNLO_Wtaunu_MAXHTPTV140_280_CFilterBVeto.merge.DAOD_TRUTH3.e5340_p2768
mc15_13TeV:mc15_13TeV.364192.Sherpa_221_NNPDF30NNLO_Wtaunu_MAXHTPTV140_280_BFilter.merge.DAOD_TRUTH3.e5340_p2768
mc15_13TeV:mc15_13TeV.364193.Sherpa_221_NNPDF30NNLO_Wtaunu_MAXHTPTV280_500_CVetoBVeto.merge.DAOD_TRUTH3.e5340_p2768
mc15_13TeV:mc15_13TeV.364194.Sherpa_221_NNPDF30NNLO_Wtaunu_MAXHTPTV280_500_CFilterBVeto.merge.DAOD_TRUTH3.e5340_p2768
mc15_13TeV:mc15_13TeV.364195.Sherpa_221_NNPDF30NNLO_Wtaunu_MAXHTPTV280_500_BFilter.merge.DAOD_TRUTH3.e5340_p2768
mc15_13TeV:mc15_13TeV.364196.Sherpa_221_NNPDF30NNLO_Wtaunu_MAXHTPTV500_1000.merge.DAOD_TRUTH3.e5340_p2768
mc15_13TeV:mc15_13TeV.364197.Sherpa_221_NNPDF30NNLO_Wtaunu_MAXHTPTV1000_E_CMS.merge.DAOD_TRUTH3.e5340_p2768
mc15_13TeV:mc15_13TeV.407012.PowhegPythiaEvtGen_P2012CT10_ttbarMET200_hdamp172p5_nonAH.merge.DAOD_TRUTH3.e4023_p2949
mc15_13TeV:mc15_13TeV.407019.PowhegPythiaEvtGen_P2012CT10_Wt_inclusive_top_MET200.merge.DAOD_TRUTH3.e4024_p2949
mc15_13TeV:mc15_13TeV.407021.PowhegPythiaEvtGen_P2012CT10_Wt_inclusive_tbar_MET200.merge.DAOD_TRUTH3.e4024_p2949
mc15_13TeV:mc15_13TeV.410000.PowhegPythiaEvtGen_P2012_ttbar_hdamp172p5_nonallhad.merge.DAOD_TRUTH3.e3698_p2949
mc15_13TeV:mc15_13TeV.410011.PowhegPythiaEvtGen_P2012_singletop_tchan_lept_top.merge.DAOD_TRUTH3.e3824_p2949
mc15_13TeV:mc15_13TeV.410012.PowhegPythiaEvtGen_P2012_singletop_tchan_lept_antitop.merge.DAOD_TRUTH3.e3824_p2949
mc15_13TeV:mc15_13TeV.410013.PowhegPythiaEvtGen_P2012_Wt_inclusive_top.merge.DAOD_TRUTH3.e3753_p2949
mc15_13TeV:mc15_13TeV.410014.PowhegPythiaEvtGen_P2012_Wt_inclusive_antitop.merge.DAOD_TRUTH3.e3753_p2949
mc15_13TeV:mc15_13TeV.410025.PowhegPythiaEvtGen_P2012_SingleTopSchan_noAllHad_top.merge.DAOD_TRUTH3.e3998_p2949
mc15_13TeV:mc15_13TeV.410026.PowhegPythiaEvtGen_P2012_SingleTopSchan_noAllHad_antitop.merge.DAOD_TRUTH3.e3998_p2949
mc15_13TeV:mc15_13TeV.410155.aMcAtNloPythia8EvtGen_MEN30NLO_A14N23LO_ttW.merge.DAOD_TRUTH3.e5070_p2949
mc15_13TeV:mc15_13TeV.410156.aMcAtNloPythia8EvtGen_MEN30NLO_A14N23LO_ttZnunu.merge.DAOD_TRUTH3.e5070_p2949
mc15_13TeV:mc15_13TeV.410157.aMcAtNloPythia8EvtGen_MEN30NLO_A14N23LO_ttZqq.merge.DAOD_TRUTH3.e5070_p2949
mc15_13TeV:mc15_13TeV.410218.aMcAtNloPythia8EvtGen_MEN30NLO_A14N23LO_ttee.merge.DAOD_TRUTH3.e5070_p2949
mc15_13TeV:mc15_13TeV.410219.aMcAtNloPythia8EvtGen_MEN30NLO_A14N23LO_ttmumu.merge.DAOD_TRUTH3.e5070_p2949
mc15_13TeV:mc15_13TeV.410220.aMcAtNloPythia8EvtGen_MEN30NLO_A14N23LO_tttautau.merge.DAOD_TRUTH3.e5070_p2949
